EESchema Schematic File Version 4
EELAYER 30 0
EELAYER END
$Descr A4 11693 8268
encoding utf-8
Sheet 1 1
Title ""
Date ""
Rev ""
Comp ""
Comment1 ""
Comment2 ""
Comment3 ""
Comment4 ""
$EndDescr
$Comp
L RF_Module:RFM95W-868S2 U2
U 1 1 600C232A
P 8300 3850
F 0 "U2" H 7600 4450 50  0000 C CNN
F 1 "RFM95W-868S2" H 7850 4350 50  0000 C CNN
F 2 "RF_Module:HOPERF_RFM9XW_SMD" H 5000 5500 50  0001 C CNN
F 3 "https://www.hoperf.com/data/upload/portal/20181127/5bfcbea20e9ef.pdf" H 5000 5500 50  0001 C CNN
	1    8300 3850
	1    0    0    -1  
$EndComp
Wire Wire Line
	5500 4850 5500 5000
Wire Wire Line
	5500 5000 5600 5000
Wire Wire Line
	5800 5000 5800 4850
Wire Wire Line
	5600 4850 5600 5000
Connection ~ 5600 5000
Wire Wire Line
	5600 5000 5700 5000
Wire Wire Line
	5700 4850 5700 5000
Connection ~ 5700 5000
Wire Wire Line
	5700 5000 5800 5000
$Comp
L power:GND #PWR01
U 1 1 600D7690
P 5500 5150
F 0 "#PWR01" H 5500 4900 50  0001 C CNN
F 1 "GND" H 5505 4977 50  0000 C CNN
F 2 "" H 5500 5150 50  0001 C CNN
F 3 "" H 5500 5150 50  0001 C CNN
	1    5500 5150
	1    0    0    -1  
$EndComp
Wire Wire Line
	5500 5000 5500 5150
Connection ~ 5500 5000
Wire Wire Line
	5600 1950 5600 1600
Wire Wire Line
	5600 1600 5700 1600
Wire Wire Line
	5700 1600 5700 1950
Wire Wire Line
	5700 1600 5800 1600
Wire Wire Line
	5800 1600 5800 1950
Connection ~ 5700 1600
Wire Wire Line
	5800 1600 5900 1600
Wire Wire Line
	5900 1600 5900 1950
Connection ~ 5800 1600
Connection ~ 5900 1600
$Comp
L power:+3V3 #PWR02
U 1 1 600DA247
P 7700 1400
F 0 "#PWR02" H 7700 1250 50  0001 C CNN
F 1 "+3V3" H 7715 1573 50  0000 C CNN
F 2 "" H 7700 1400 50  0001 C CNN
F 3 "" H 7700 1400 50  0001 C CNN
	1    7700 1400
	1    0    0    -1  
$EndComp
$Comp
L Device:C C1
U 1 1 600DB0F1
P 6400 1850
F 0 "C1" H 6515 1896 50  0000 L CNN
F 1 "100n" H 6515 1805 50  0000 L CNN
F 2 "Capacitor_SMD:C_0603_1608Metric_Pad1.08x0.95mm_HandSolder" H 6438 1700 50  0001 C CNN
F 3 "~" H 6400 1850 50  0001 C CNN
	1    6400 1850
	1    0    0    -1  
$EndComp
$Comp
L Device:C C2
U 1 1 600DB842
P 6700 1850
F 0 "C2" H 6815 1896 50  0000 L CNN
F 1 "100n" H 6815 1805 50  0000 L CNN
F 2 "Capacitor_SMD:C_0603_1608Metric_Pad1.08x0.95mm_HandSolder" H 6738 1700 50  0001 C CNN
F 3 "~" H 6700 1850 50  0001 C CNN
	1    6700 1850
	1    0    0    -1  
$EndComp
$Comp
L Device:C C3
U 1 1 600DBEA1
P 7050 1850
F 0 "C3" H 7165 1896 50  0000 L CNN
F 1 "100n" H 7165 1805 50  0000 L CNN
F 2 "Capacitor_SMD:C_0603_1608Metric_Pad1.08x0.95mm_HandSolder" H 7088 1700 50  0001 C CNN
F 3 "~" H 7050 1850 50  0001 C CNN
	1    7050 1850
	1    0    0    -1  
$EndComp
$Comp
L Device:C C4
U 1 1 600DC345
P 7400 1850
F 0 "C4" H 7515 1896 50  0000 L CNN
F 1 "100n" H 7515 1805 50  0000 L CNN
F 2 "Capacitor_SMD:C_0603_1608Metric_Pad1.08x0.95mm_HandSolder" H 7438 1700 50  0001 C CNN
F 3 "~" H 7400 1850 50  0001 C CNN
	1    7400 1850
	1    0    0    -1  
$EndComp
Wire Wire Line
	7700 1600 7700 1400
Wire Wire Line
	5900 1600 6400 1600
Wire Wire Line
	6400 1700 6400 1600
Connection ~ 6400 1600
Wire Wire Line
	6400 1600 6700 1600
Wire Wire Line
	6700 1700 6700 1600
Connection ~ 6700 1600
Wire Wire Line
	6700 1600 7050 1600
Wire Wire Line
	7050 1700 7050 1600
Connection ~ 7050 1600
Wire Wire Line
	7050 1600 7400 1600
Wire Wire Line
	7400 1700 7400 1600
Connection ~ 7400 1600
Wire Wire Line
	7400 1600 7700 1600
Wire Wire Line
	6400 2000 6400 2100
Wire Wire Line
	6400 2100 6700 2100
Wire Wire Line
	7700 2100 7700 2200
Wire Wire Line
	7400 2000 7400 2100
Connection ~ 7400 2100
Wire Wire Line
	7400 2100 7700 2100
Wire Wire Line
	7050 2000 7050 2100
Connection ~ 7050 2100
Wire Wire Line
	7050 2100 7400 2100
Wire Wire Line
	6700 2000 6700 2100
Connection ~ 6700 2100
Wire Wire Line
	6700 2100 7050 2100
$Comp
L power:GND #PWR03
U 1 1 600E238B
P 7700 2200
F 0 "#PWR03" H 7700 1950 50  0001 C CNN
F 1 "GND" H 7705 2027 50  0000 C CNN
F 2 "" H 7700 2200 50  0001 C CNN
F 3 "" H 7700 2200 50  0001 C CNN
	1    7700 2200
	1    0    0    -1  
$EndComp
Wire Wire Line
	8200 4450 8200 4500
Wire Wire Line
	8200 4500 8300 4500
Wire Wire Line
	8400 4500 8400 4450
Wire Wire Line
	8300 4450 8300 4500
Connection ~ 8300 4500
Wire Wire Line
	8300 4500 8400 4500
Wire Wire Line
	8200 4500 8200 4600
Connection ~ 8200 4500
$Comp
L power:GND #PWR04
U 1 1 600E4EE5
P 8200 4600
F 0 "#PWR04" H 8200 4350 50  0001 C CNN
F 1 "GND" H 8205 4427 50  0000 C CNN
F 2 "" H 8200 4600 50  0001 C CNN
F 3 "" H 8200 4600 50  0001 C CNN
	1    8200 4600
	1    0    0    -1  
$EndComp
Wire Wire Line
	8300 2750 9150 2750
Wire Wire Line
	9300 2750 9300 2700
$Comp
L power:+3V3 #PWR05
U 1 1 600E6920
P 9300 2700
F 0 "#PWR05" H 9300 2550 50  0001 C CNN
F 1 "+3V3" H 9315 2873 50  0000 C CNN
F 2 "" H 9300 2700 50  0001 C CNN
F 3 "" H 9300 2700 50  0001 C CNN
	1    9300 2700
	1    0    0    -1  
$EndComp
$Comp
L Device:C C5
U 1 1 600E6FB9
P 9150 2950
F 0 "C5" H 9265 2996 50  0000 L CNN
F 1 "100n" H 9265 2905 50  0000 L CNN
F 2 "Capacitor_SMD:C_0603_1608Metric_Pad1.08x0.95mm_HandSolder" H 9188 2800 50  0001 C CNN
F 3 "~" H 9150 2950 50  0001 C CNN
	1    9150 2950
	1    0    0    -1  
$EndComp
Wire Wire Line
	9150 2800 9150 2750
Connection ~ 9150 2750
Wire Wire Line
	9150 2750 9300 2750
$Comp
L power:GND #PWR06
U 1 1 600E8BC0
P 9150 3200
F 0 "#PWR06" H 9150 2950 50  0001 C CNN
F 1 "GND" H 9155 3027 50  0000 C CNN
F 2 "" H 9150 3200 50  0001 C CNN
F 3 "" H 9150 3200 50  0001 C CNN
	1    9150 3200
	1    0    0    -1  
$EndComp
$Comp
L Connector:Conn_Coaxial J1
U 1 1 600F043C
P 10000 2750
F 0 "J1" H 10100 2725 50  0000 L CNN
F 1 "Conn_Coaxial" H 10100 2634 50  0000 L CNN
F 2 "Connector_Coaxial:U.FL_Hirose_U.FL-R-SMT-1_Vertical" H 10000 2750 50  0001 C CNN
F 3 " ~" H 10000 2750 50  0001 C CNN
	1    10000 2750
	1    0    0    -1  
$EndComp
Wire Wire Line
	8300 2750 8300 3350
$Comp
L power:GND #PWR07
U 1 1 600F7548
P 10000 3050
F 0 "#PWR07" H 10000 2800 50  0001 C CNN
F 1 "GND" H 10005 2877 50  0000 C CNN
F 2 "" H 10000 3050 50  0001 C CNN
F 3 "" H 10000 3050 50  0001 C CNN
	1    10000 3050
	1    0    0    -1  
$EndComp
Wire Wire Line
	7800 3650 7000 3650
Wire Wire Line
	7000 3650 7000 3850
Wire Wire Line
	7000 3850 6300 3850
Wire Wire Line
	8800 4250 8900 4250
Wire Wire Line
	8900 4250 8900 5050
Wire Wire Line
	6800 5050 8900 5050
Wire Wire Line
	7800 4050 7250 4050
Wire Wire Line
	7250 4050 7250 3350
Wire Wire Line
	7250 3350 6300 3350
Wire Wire Line
	9000 4150 8800 4150
Wire Wire Line
	6900 4950 9000 4950
Wire Wire Line
	9000 4950 9000 4150
Wire Wire Line
	7800 3550 7350 3550
Wire Wire Line
	7350 3550 7350 3250
Wire Wire Line
	7350 3250 6300 3250
Wire Wire Line
	7800 3850 7150 3850
Wire Wire Line
	7150 3850 7150 3550
Wire Wire Line
	7150 3550 6300 3550
Wire Wire Line
	3800 2350 3600 2350
Wire Wire Line
	4850 2450 5100 2450
$Comp
L Device:R R1
U 1 1 600E6210
P 4000 3000
F 0 "R1" V 3793 3000 50  0000 C CNN
F 1 "0" V 3884 3000 50  0000 C CNN
F 2 "Resistor_SMD:R_0603_1608Metric_Pad0.98x0.95mm_HandSolder" V 3930 3000 50  0001 C CNN
F 3 "~" H 4000 3000 50  0001 C CNN
	1    4000 3000
	0    1    1    0   
$EndComp
$Comp
L Device:C C6
U 1 1 600E6C14
P 3600 2550
F 0 "C6" H 3715 2596 50  0000 L CNN
F 1 "16p" H 3715 2505 50  0000 L CNN
F 2 "Capacitor_SMD:C_0603_1608Metric_Pad1.08x0.95mm_HandSolder" H 3638 2400 50  0001 C CNN
F 3 "~" H 3600 2550 50  0001 C CNN
	1    3600 2550
	1    0    0    -1  
$EndComp
$Comp
L Device:C C7
U 1 1 600EC44F
P 4300 2550
F 0 "C7" H 4415 2596 50  0000 L CNN
F 1 "16p" H 4415 2505 50  0000 L CNN
F 2 "Capacitor_SMD:C_0603_1608Metric_Pad1.08x0.95mm_HandSolder" H 4338 2400 50  0001 C CNN
F 3 "~" H 4300 2550 50  0001 C CNN
	1    4300 2550
	1    0    0    -1  
$EndComp
Wire Wire Line
	3600 2400 3600 2350
Connection ~ 3600 2350
Wire Wire Line
	3600 2350 3400 2350
Wire Wire Line
	4100 2350 4300 2350
Wire Wire Line
	4300 2400 4300 2350
Connection ~ 4300 2350
Wire Wire Line
	4300 2350 5100 2350
Wire Wire Line
	4850 3000 4150 3000
Wire Wire Line
	4850 2450 4850 3000
Wire Wire Line
	3850 3000 3400 3000
Wire Wire Line
	3400 2350 3400 3000
$Comp
L power:GND #PWR08
U 1 1 600FE428
P 3600 2750
F 0 "#PWR08" H 3600 2500 50  0001 C CNN
F 1 "GND" H 3750 2700 50  0000 C CNN
F 2 "" H 3600 2750 50  0001 C CNN
F 3 "" H 3600 2750 50  0001 C CNN
	1    3600 2750
	1    0    0    -1  
$EndComp
$Comp
L power:GND #PWR010
U 1 1 600FE936
P 4300 2750
F 0 "#PWR010" H 4300 2500 50  0001 C CNN
F 1 "GND" H 4450 2700 50  0000 C CNN
F 2 "" H 4300 2750 50  0001 C CNN
F 3 "" H 4300 2750 50  0001 C CNN
	1    4300 2750
	1    0    0    -1  
$EndComp
Wire Wire Line
	3600 2700 3600 2750
Wire Wire Line
	4300 2700 4300 2750
$Comp
L MCU_ST_STM32L4:STM32L433CCTx U1
U 1 1 60134739
P 5700 3350
F 0 "U1" H 4850 4800 50  0000 C CNN
F 1 "STM32L433CCTx" H 5700 3650 50  0000 C CNN
F 2 "Package_QFP:LQFP-48_7x7mm_P0.5mm" H 5200 1950 50  0001 R CNN
F 3 "http://www.st.com/st-web-ui/static/active/en/resource/technical/document/datasheet/DM00257192.pdf" H 5700 3350 50  0001 C CNN
	1    5700 3350
	1    0    0    -1  
$EndComp
Wire Wire Line
	6300 4350 6800 4350
Wire Wire Line
	6800 4350 6800 5050
Wire Wire Line
	6300 4250 6900 4250
Wire Wire Line
	6900 4250 6900 4950
Wire Wire Line
	6300 4450 6700 4450
Wire Wire Line
	6300 4550 6600 4550
Wire Wire Line
	6600 4550 6600 5150
$Comp
L Device:C C8
U 1 1 60141DF5
P 4300 1650
F 0 "C8" H 4415 1696 50  0000 L CNN
F 1 "100n" H 4415 1605 50  0000 L CNN
F 2 "Capacitor_SMD:C_0603_1608Metric_Pad1.08x0.95mm_HandSolder" H 4338 1500 50  0001 C CNN
F 3 "~" H 4300 1650 50  0001 C CNN
	1    4300 1650
	1    0    0    -1  
$EndComp
$Comp
L Device:R R2
U 1 1 601429C3
P 4300 1150
F 0 "R2" H 4370 1196 50  0000 L CNN
F 1 "100k" H 4370 1105 50  0000 L CNN
F 2 "Resistor_SMD:R_0603_1608Metric_Pad0.98x0.95mm_HandSolder" V 4230 1150 50  0001 C CNN
F 3 "~" H 4300 1150 50  0001 C CNN
	1    4300 1150
	1    0    0    -1  
$EndComp
$Comp
L power:GND #PWR012
U 1 1 60143030
P 4300 1900
F 0 "#PWR012" H 4300 1650 50  0001 C CNN
F 1 "GND" H 4450 1850 50  0000 C CNN
F 2 "" H 4300 1900 50  0001 C CNN
F 3 "" H 4300 1900 50  0001 C CNN
	1    4300 1900
	1    0    0    -1  
$EndComp
$Comp
L power:+3V3 #PWR011
U 1 1 60143648
P 4300 900
F 0 "#PWR011" H 4300 750 50  0001 C CNN
F 1 "+3V3" H 4315 1073 50  0000 C CNN
F 2 "" H 4300 900 50  0001 C CNN
F 3 "" H 4300 900 50  0001 C CNN
	1    4300 900 
	1    0    0    -1  
$EndComp
Wire Wire Line
	4300 900  4300 1000
Wire Wire Line
	4300 1300 4300 1450
Wire Wire Line
	4300 1800 4300 1900
Wire Wire Line
	4300 1450 4750 1450
Wire Wire Line
	4750 1450 4750 2150
Wire Wire Line
	4750 2150 5100 2150
Connection ~ 4300 1450
Wire Wire Line
	4300 1450 4300 1500
$Comp
L Connector:Conn_01x04_Male J2
U 1 1 60156B37
P 10450 5150
F 0 "J2" H 10100 5250 50  0000 R CNN
F 1 "ST-Link" H 10100 5150 50  0000 R CNN
F 2 "Connector_PinHeader_2.00mm:PinHeader_1x04_P2.00mm_Vertical" H 10450 5150 50  0001 C CNN
F 3 "~" H 10450 5150 50  0001 C CNN
	1    10450 5150
	-1   0    0    -1  
$EndComp
Wire Wire Line
	6600 5150 10250 5150
Wire Wire Line
	6700 5250 10250 5250
Wire Wire Line
	6700 4450 6700 5250
$Comp
L power:GND #PWR0103
U 1 1 6016888F
P 10000 5550
F 0 "#PWR0103" H 10000 5300 50  0001 C CNN
F 1 "GND" H 10100 5550 50  0000 C CNN
F 2 "" H 10000 5550 50  0001 C CNN
F 3 "" H 10000 5550 50  0001 C CNN
	1    10000 5550
	1    0    0    -1  
$EndComp
Text Notes 10500 5050 0    50   ~ 0
GND\n
Text Notes 10500 5150 0    50   ~ 0
SWCLK
Text Notes 10500 5250 0    50   ~ 0
SWDIO
Text Notes 10500 5350 0    50   ~ 0
VCC-T
Wire Wire Line
	10000 5550 10000 5050
Wire Wire Line
	10000 5050 10250 5050
$Comp
L Device:Crystal Y1
U 1 1 60157F53
P 3950 2350
F 0 "Y1" H 3950 2618 50  0000 C CNN
F 1 "8 MHz/8 pF" H 3950 2527 50  0000 C CNN
F 2 "Crystal:Crystal_SMD_TXC_AX_8045-2Pin_8.0x4.5mm" H 3950 2350 50  0001 C CNN
F 3 "~" H 3950 2350 50  0001 C CNN
	1    3950 2350
	1    0    0    -1  
$EndComp
$Comp
L Mechanical:MountingHole H1
U 1 1 601705E6
P 1700 1300
F 0 "H1" H 1800 1300 50  0000 L CNN
F 1 "MountingHole" H 1800 1255 50  0001 L CNN
F 2 "MountingHole:MountingHole_3.2mm_M3_DIN965" H 1700 1300 50  0001 C CNN
F 3 "~" H 1700 1300 50  0001 C CNN
	1    1700 1300
	1    0    0    -1  
$EndComp
$Comp
L Mechanical:MountingHole H3
U 1 1 601717C1
P 2000 1300
F 0 "H3" H 2100 1300 50  0000 L CNN
F 1 "MountingHole" H 2100 1255 50  0001 L CNN
F 2 "MountingHole:MountingHole_3.2mm_M3_DIN965" H 2000 1300 50  0001 C CNN
F 3 "~" H 2000 1300 50  0001 C CNN
	1    2000 1300
	1    0    0    -1  
$EndComp
$Comp
L Mechanical:MountingHole H2
U 1 1 60171E85
P 1700 1600
F 0 "H2" H 1800 1600 50  0000 L CNN
F 1 "MountingHole" H 1800 1555 50  0001 L CNN
F 2 "MountingHole:MountingHole_3.2mm_M3_DIN965" H 1700 1600 50  0001 C CNN
F 3 "~" H 1700 1600 50  0001 C CNN
	1    1700 1600
	1    0    0    -1  
$EndComp
$Comp
L Mechanical:MountingHole H4
U 1 1 60172244
P 2000 1600
F 0 "H4" H 2100 1600 50  0000 L CNN
F 1 "MountingHole" H 2100 1555 50  0001 L CNN
F 2 "MountingHole:MountingHole_3.2mm_M3_DIN965" H 2000 1600 50  0001 C CNN
F 3 "~" H 2000 1600 50  0001 C CNN
	1    2000 1600
	1    0    0    -1  
$EndComp
$Comp
L Connector:Conn_01x04_Female J3
U 1 1 60178984
P 10450 5950
F 0 "J3" H 10750 5950 50  0000 L CNN
F 1 "GPS" H 10750 5850 50  0000 L CNN
F 2 "Connector_PinSocket_2.54mm:PinSocket_1x04_P2.54mm_Vertical" H 10450 5950 50  0001 C CNN
F 3 "~" H 10450 5950 50  0001 C CNN
	1    10450 5950
	1    0    0    -1  
$EndComp
$Comp
L power:GND #PWR0104
U 1 1 6017C256
P 9900 6200
F 0 "#PWR0104" H 9900 5950 50  0001 C CNN
F 1 "GND" H 9750 6150 50  0000 C CNN
F 2 "" H 9900 6200 50  0001 C CNN
F 3 "" H 9900 6200 50  0001 C CNN
	1    9900 6200
	1    0    0    -1  
$EndComp
Wire Wire Line
	9900 6200 9900 6150
Wire Wire Line
	9900 6150 10250 6150
Text Notes 10500 5850 0    50   ~ 0
VCC
Text Notes 10500 5950 0    50   ~ 0
TX
Text Notes 10500 6050 0    50   ~ 0
RX
Text Notes 10500 6150 0    50   ~ 0
GND
Text Notes 1400 1150 0    50   ~ 0
Mounting holes 3.2 mm
Wire Wire Line
	6300 4150 6400 4150
Wire Wire Line
	6400 4150 6400 6050
Wire Wire Line
	6400 6050 10250 6050
Wire Wire Line
	6300 4050 6500 4050
Wire Wire Line
	6500 4050 6500 5950
Wire Wire Line
	6500 5950 10250 5950
$Comp
L Regulator_Linear:MIC5205-3.3YM5 U3
U 1 1 601A4C71
P 3900 6300
F 0 "U3" H 3900 6642 50  0000 C CNN
F 1 "MIC5205-3.3YM5" H 3900 6551 50  0000 C CNN
F 2 "Package_TO_SOT_SMD:SOT-23-5" H 3900 6625 50  0001 C CNN
F 3 "http://ww1.microchip.com/downloads/en/DeviceDoc/20005785A.pdf" H 3900 6300 50  0001 C CNN
	1    3900 6300
	1    0    0    -1  
$EndComp
$Comp
L power:GND #PWR09
U 1 1 601A6AB7
P 3900 6750
F 0 "#PWR09" H 3900 6500 50  0001 C CNN
F 1 "GND" H 3905 6577 50  0000 C CNN
F 2 "" H 3900 6750 50  0001 C CNN
F 3 "" H 3900 6750 50  0001 C CNN
	1    3900 6750
	1    0    0    -1  
$EndComp
Wire Wire Line
	3900 6600 3900 6750
$Comp
L power:+3V3 #PWR013
U 1 1 601AC6BB
P 5200 6050
F 0 "#PWR013" H 5200 5900 50  0001 C CNN
F 1 "+3V3" H 5215 6223 50  0000 C CNN
F 2 "" H 5200 6050 50  0001 C CNN
F 3 "" H 5200 6050 50  0001 C CNN
	1    5200 6050
	1    0    0    -1  
$EndComp
Wire Wire Line
	4200 6200 4750 6200
Wire Wire Line
	5200 6200 5200 6050
Wire Wire Line
	3450 6300 3450 6200
Wire Wire Line
	3450 6200 3600 6200
Wire Wire Line
	3450 6300 3600 6300
$Comp
L Device:C C10
U 1 1 601BB8D4
P 4750 6500
F 0 "C10" H 4865 6546 50  0000 L CNN
F 1 "100n" H 4865 6455 50  0000 L CNN
F 2 "Capacitor_SMD:C_0603_1608Metric_Pad1.08x0.95mm_HandSolder" H 4788 6350 50  0001 C CNN
F 3 "~" H 4750 6500 50  0001 C CNN
	1    4750 6500
	1    0    0    -1  
$EndComp
$Comp
L Device:C C9
U 1 1 601BC452
P 3200 6500
F 0 "C9" H 3315 6546 50  0000 L CNN
F 1 "100n" H 3315 6455 50  0000 L CNN
F 2 "Capacitor_SMD:C_0603_1608Metric_Pad1.08x0.95mm_HandSolder" H 3238 6350 50  0001 C CNN
F 3 "~" H 3200 6500 50  0001 C CNN
	1    3200 6500
	1    0    0    -1  
$EndComp
$Comp
L power:GND #PWR015
U 1 1 601BCDD1
P 3200 6750
F 0 "#PWR015" H 3200 6500 50  0001 C CNN
F 1 "GND" H 3205 6577 50  0000 C CNN
F 2 "" H 3200 6750 50  0001 C CNN
F 3 "" H 3200 6750 50  0001 C CNN
	1    3200 6750
	1    0    0    -1  
$EndComp
$Comp
L power:GND #PWR016
U 1 1 601BD2E1
P 4750 6750
F 0 "#PWR016" H 4750 6500 50  0001 C CNN
F 1 "GND" H 4755 6577 50  0000 C CNN
F 2 "" H 4750 6750 50  0001 C CNN
F 3 "" H 4750 6750 50  0001 C CNN
	1    4750 6750
	1    0    0    -1  
$EndComp
Wire Wire Line
	4750 6750 4750 6650
Wire Wire Line
	3200 6750 3200 6650
Connection ~ 5200 6200
Wire Wire Line
	2400 6200 2750 6200
Connection ~ 3450 6200
$Comp
L power:+5V #PWR014
U 1 1 601D0648
P 2400 6050
F 0 "#PWR014" H 2400 5900 50  0001 C CNN
F 1 "+5V" H 2415 6223 50  0000 C CNN
F 2 "" H 2400 6050 50  0001 C CNN
F 3 "" H 2400 6050 50  0001 C CNN
	1    2400 6050
	1    0    0    -1  
$EndComp
Wire Wire Line
	2400 6050 2400 6200
$Comp
L power:+5V #PWR017
U 1 1 601D6071
P 9900 5800
F 0 "#PWR017" H 9900 5650 50  0001 C CNN
F 1 "+5V" H 9750 5900 50  0000 C CNN
F 2 "" H 9900 5800 50  0001 C CNN
F 3 "" H 9900 5800 50  0001 C CNN
	1    9900 5800
	1    0    0    -1  
$EndComp
Wire Wire Line
	9900 5800 9900 5850
Wire Wire Line
	9900 5850 10250 5850
$Comp
L Device:C C11
U 1 1 601F37C0
P 4300 6500
F 0 "C11" H 4415 6546 50  0000 L CNN
F 1 "470p" H 4415 6455 50  0000 L CNN
F 2 "Capacitor_SMD:C_0603_1608Metric_Pad1.08x0.95mm_HandSolder" H 4338 6350 50  0001 C CNN
F 3 "~" H 4300 6500 50  0001 C CNN
	1    4300 6500
	1    0    0    -1  
$EndComp
$Comp
L power:GND #PWR018
U 1 1 601F426E
P 4300 6750
F 0 "#PWR018" H 4300 6500 50  0001 C CNN
F 1 "GND" H 4305 6577 50  0000 C CNN
F 2 "" H 4300 6750 50  0001 C CNN
F 3 "" H 4300 6750 50  0001 C CNN
	1    4300 6750
	1    0    0    -1  
$EndComp
Wire Wire Line
	4200 6300 4300 6300
Wire Wire Line
	4300 6300 4300 6350
Wire Wire Line
	4300 6650 4300 6750
$Comp
L Device:CP1 C12
U 1 1 602198CA
P 5200 6500
F 0 "C12" H 5315 6546 50  0000 L CNN
F 1 "1u0" H 5315 6455 50  0000 L CNN
F 2 "Capacitor_Tantalum_SMD:CP_EIA-3528-21_Kemet-B_Pad1.50x2.35mm_HandSolder" H 5200 6500 50  0001 C CNN
F 3 "~" H 5200 6500 50  0001 C CNN
	1    5200 6500
	1    0    0    -1  
$EndComp
Wire Wire Line
	5200 6200 5200 6350
$Comp
L power:GND #PWR019
U 1 1 6021F7F5
P 5200 6750
F 0 "#PWR019" H 5200 6500 50  0001 C CNN
F 1 "GND" H 5205 6577 50  0000 C CNN
F 2 "" H 5200 6750 50  0001 C CNN
F 3 "" H 5200 6750 50  0001 C CNN
	1    5200 6750
	1    0    0    -1  
$EndComp
Wire Wire Line
	5200 6750 5200 6650
Wire Wire Line
	4750 6350 4750 6200
Connection ~ 4750 6200
Wire Wire Line
	4750 6200 5200 6200
$Comp
L Device:LED D1
U 1 1 60177CFB
P 5800 6500
F 0 "D1" V 5839 6382 50  0000 R CNN
F 1 "POWER" V 5748 6382 50  0000 R CNN
F 2 "LED_SMD:LED_0603_1608Metric_Pad1.05x0.95mm_HandSolder" H 5800 6500 50  0001 C CNN
F 3 "~" H 5800 6500 50  0001 C CNN
	1    5800 6500
	0    -1   -1   0   
$EndComp
$Comp
L Device:R R3
U 1 1 6017861D
P 5550 6200
F 0 "R3" V 5343 6200 50  0000 C CNN
F 1 "820" V 5434 6200 50  0000 C CNN
F 2 "Resistor_SMD:R_0603_1608Metric_Pad0.98x0.95mm_HandSolder" V 5480 6200 50  0001 C CNN
F 3 "~" H 5550 6200 50  0001 C CNN
	1    5550 6200
	0    1    1    0   
$EndComp
Wire Wire Line
	5200 6200 5400 6200
Wire Wire Line
	5700 6200 5800 6200
Wire Wire Line
	5800 6200 5800 6350
$Comp
L power:GND #PWR020
U 1 1 60184656
P 5800 6750
F 0 "#PWR020" H 5800 6500 50  0001 C CNN
F 1 "GND" H 5805 6577 50  0000 C CNN
F 2 "" H 5800 6750 50  0001 C CNN
F 3 "" H 5800 6750 50  0001 C CNN
	1    5800 6750
	1    0    0    -1  
$EndComp
Wire Wire Line
	5800 6650 5800 6750
$Comp
L power:+5V #PWR0101
U 1 1 6018B322
P 9650 4850
F 0 "#PWR0101" H 9650 4700 50  0001 C CNN
F 1 "+5V" H 9600 5000 50  0000 C CNN
F 2 "" H 9650 4850 50  0001 C CNN
F 3 "" H 9650 4850 50  0001 C CNN
	1    9650 4850
	1    0    0    -1  
$EndComp
Wire Wire Line
	9650 4850 9650 5350
Wire Wire Line
	9650 5350 10250 5350
Wire Wire Line
	3200 6350 3200 6200
Connection ~ 3200 6200
Wire Wire Line
	3200 6200 3450 6200
$Comp
L Device:R R4
U 1 1 601BD733
P 4000 3400
F 0 "R4" V 3793 3400 50  0000 C CNN
F 1 "820" V 3884 3400 50  0000 C CNN
F 2 "Resistor_SMD:R_0603_1608Metric_Pad0.98x0.95mm_HandSolder" V 3930 3400 50  0001 C CNN
F 3 "~" H 4000 3400 50  0001 C CNN
	1    4000 3400
	0    1    1    0   
$EndComp
$Comp
L Device:LED D2
U 1 1 601BE323
P 3550 3650
F 0 "D2" V 3589 3532 50  0000 R CNN
F 1 "STATUS" V 3498 3532 50  0000 R CNN
F 2 "LED_SMD:LED_0603_1608Metric_Pad1.05x0.95mm_HandSolder" H 3550 3650 50  0001 C CNN
F 3 "~" H 3550 3650 50  0001 C CNN
	1    3550 3650
	0    -1   -1   0   
$EndComp
$Comp
L power:GND #PWR021
U 1 1 601BEEB1
P 3550 3900
F 0 "#PWR021" H 3550 3650 50  0001 C CNN
F 1 "GND" H 3555 3727 50  0000 C CNN
F 2 "" H 3550 3900 50  0001 C CNN
F 3 "" H 3550 3900 50  0001 C CNN
	1    3550 3900
	1    0    0    -1  
$EndComp
Wire Wire Line
	3550 3900 3550 3800
Wire Wire Line
	3550 3500 3550 3400
Wire Wire Line
	3550 3400 3850 3400
Wire Wire Line
	4150 3400 4950 3400
Wire Wire Line
	4950 3400 4950 2750
Wire Wire Line
	4950 2750 5100 2750
Wire Wire Line
	5500 1950 5500 1600
Wire Wire Line
	5500 1600 5600 1600
Connection ~ 5600 1600
$Comp
L Device:R R5
U 1 1 601C128B
P 9750 3800
F 0 "R5" H 9820 3846 50  0000 L CNN
F 1 "NP" H 9820 3755 50  0000 L CNN
F 2 "Resistor_SMD:R_0603_1608Metric_Pad0.98x0.95mm_HandSolder" V 9680 3800 50  0001 C CNN
F 3 "~" H 9750 3800 50  0001 C CNN
	1    9750 3800
	1    0    0    -1  
$EndComp
$Comp
L Device:R R7
U 1 1 601C1CE5
P 10250 3800
F 0 "R7" H 10320 3846 50  0000 L CNN
F 1 "NP" H 10320 3755 50  0000 L CNN
F 2 "Resistor_SMD:R_0603_1608Metric_Pad0.98x0.95mm_HandSolder" V 10180 3800 50  0001 C CNN
F 3 "~" H 10250 3800 50  0001 C CNN
	1    10250 3800
	1    0    0    -1  
$EndComp
$Comp
L Device:R R6
U 1 1 601C25EF
P 10000 3550
F 0 "R6" V 9793 3550 50  0000 C CNN
F 1 "56p" V 9884 3550 50  0000 C CNN
F 2 "Resistor_SMD:R_0603_1608Metric_Pad0.98x0.95mm_HandSolder" V 9930 3550 50  0001 C CNN
F 3 "~" H 10000 3550 50  0001 C CNN
	1    10000 3550
	0    1    1    0   
$EndComp
Wire Wire Line
	10150 3550 10250 3550
Wire Wire Line
	9150 3100 9150 3200
$Comp
L power:GND #PWR022
U 1 1 601D1ECA
P 9750 4000
F 0 "#PWR022" H 9750 3750 50  0001 C CNN
F 1 "GND" H 9755 3827 50  0000 C CNN
F 2 "" H 9750 4000 50  0001 C CNN
F 3 "" H 9750 4000 50  0001 C CNN
	1    9750 4000
	1    0    0    -1  
$EndComp
$Comp
L power:GND #PWR023
U 1 1 601D24DB
P 10250 4000
F 0 "#PWR023" H 10250 3750 50  0001 C CNN
F 1 "GND" H 10255 3827 50  0000 C CNN
F 2 "" H 10250 4000 50  0001 C CNN
F 3 "" H 10250 4000 50  0001 C CNN
	1    10250 4000
	1    0    0    -1  
$EndComp
Wire Wire Line
	9750 3650 9750 3550
Connection ~ 9750 3550
Wire Wire Line
	9750 3550 9850 3550
Wire Wire Line
	10250 3650 10250 3550
Connection ~ 10250 3550
Wire Wire Line
	10250 3950 10250 4000
Wire Wire Line
	9750 3950 9750 4000
Wire Wire Line
	8800 3550 9550 3550
Wire Wire Line
	9800 2750 9550 2750
Wire Wire Line
	9550 2750 9550 3550
Connection ~ 9550 3550
Wire Wire Line
	9550 3550 9750 3550
Wire Wire Line
	10000 3050 10000 2950
$Comp
L Device:Antenna AE1
U 1 1 6021457A
P 10550 3200
F 0 "AE1" H 10630 3189 50  0000 L CNN
F 1 "Antenna" H 10630 3098 50  0000 L CNN
F 2 "inkscape:antenna" H 10550 3200 50  0001 C CNN
F 3 "~" H 10550 3200 50  0001 C CNN
	1    10550 3200
	1    0    0    -1  
$EndComp
Wire Wire Line
	10550 3550 10550 3400
Wire Wire Line
	10250 3550 10550 3550
Wire Wire Line
	5100 2550 4950 2550
Wire Wire Line
	4950 2550 4950 1450
Wire Wire Line
	4950 1450 5100 1450
Wire Wire Line
	5100 1450 5100 1550
$Comp
L power:GND #PWR025
U 1 1 6033B52D
P 5100 1550
F 0 "#PWR025" H 5100 1300 50  0001 C CNN
F 1 "GND" H 5250 1500 50  0000 C CNN
F 2 "" H 5100 1550 50  0001 C CNN
F 3 "" H 5100 1550 50  0001 C CNN
	1    5100 1550
	1    0    0    -1  
$EndComp
Wire Wire Line
	6300 3950 7000 3950
Wire Wire Line
	7000 4850 9100 4850
Wire Wire Line
	9100 4850 9100 4050
Wire Wire Line
	9100 4050 8800 4050
$Comp
L Device:CP1 C13
U 1 1 6039955B
P 2750 6500
F 0 "C13" H 2865 6546 50  0000 L CNN
F 1 "2u2" H 2865 6455 50  0000 L CNN
F 2 "Capacitor_Tantalum_SMD:CP_EIA-3528-21_Kemet-B_Pad1.50x2.35mm_HandSolder" H 2750 6500 50  0001 C CNN
F 3 "~" H 2750 6500 50  0001 C CNN
	1    2750 6500
	1    0    0    -1  
$EndComp
$Comp
L power:GND #PWR024
U 1 1 60399E4E
P 2750 6750
F 0 "#PWR024" H 2750 6500 50  0001 C CNN
F 1 "GND" H 2755 6577 50  0000 C CNN
F 2 "" H 2750 6750 50  0001 C CNN
F 3 "" H 2750 6750 50  0001 C CNN
	1    2750 6750
	1    0    0    -1  
$EndComp
Wire Wire Line
	2750 6350 2750 6200
Connection ~ 2750 6200
Wire Wire Line
	2750 6200 3200 6200
Wire Wire Line
	2750 6650 2750 6750
$Comp
L Regulator_Switching:LM2594HVM-5.0 U4
U 1 1 603ACC2D
P 1900 4550
F 0 "U4" H 1900 4917 50  0000 C CNN
F 1 "LM2594HVM-5.0" H 1900 4826 50  0000 C CNN
F 2 "Package_SO:SOIC-8_3.9x4.9mm_P1.27mm" H 2100 4300 50  0001 L CIN
F 3 "http://www.ti.com/lit/ds/symlink/lm2594.pdf" H 1900 4650 50  0001 C CNN
	1    1900 4550
	1    0    0    -1  
$EndComp
Wire Wire Line
	7000 3950 7000 4850
Wire Wire Line
	6300 3750 7800 3750
Wire Wire Line
	5100 4550 4500 4550
$Comp
L Connector:Conn_01x06_Male J4
U 1 1 603CC808
P 3200 4350
F 0 "J4" H 3250 3950 50  0000 R CNN
F 1 "AUX" H 3300 3850 50  0000 R CNN
F 2 "Connector_PinHeader_2.00mm:PinHeader_1x06_P2.00mm_Vertical" H 3200 4350 50  0001 C CNN
F 3 "~" H 3200 4350 50  0001 C CNN
	1    3200 4350
	1    0    0    -1  
$EndComp
Wire Wire Line
	3400 4250 5100 4250
Wire Wire Line
	3850 4550 3850 4650
Wire Wire Line
	3850 4650 3400 4650
Wire Wire Line
	3750 4450 3750 4550
Wire Wire Line
	3750 4550 3400 4550
Wire Wire Line
	3750 4450 4200 4450
$Comp
L power:GND #PWR0105
U 1 1 6040C50C
P 3500 4750
F 0 "#PWR0105" H 3500 4500 50  0001 C CNN
F 1 "GND" H 3505 4577 50  0000 C CNN
F 2 "" H 3500 4750 50  0001 C CNN
F 3 "" H 3500 4750 50  0001 C CNN
	1    3500 4750
	1    0    0    -1  
$EndComp
$Comp
L power:+3V3 #PWR0106
U 1 1 6040CF5D
P 3900 4100
F 0 "#PWR0106" H 3900 3950 50  0001 C CNN
F 1 "+3V3" H 3915 4273 50  0000 C CNN
F 2 "" H 3900 4100 50  0001 C CNN
F 3 "" H 3900 4100 50  0001 C CNN
	1    3900 4100
	1    0    0    -1  
$EndComp
Wire Wire Line
	3400 4350 3900 4350
Wire Wire Line
	3400 4450 3500 4450
Wire Wire Line
	3500 4450 3500 4750
Wire Wire Line
	3400 4150 5100 4150
Wire Wire Line
	3900 4100 3900 4350
Text Notes 2900 4550 0    50   ~ 0
I2C_SCL
Text Notes 2900 4650 0    50   ~ 0
I2C_SDA\n
Text Notes 2900 4150 0    50   ~ 0
UART_TX
Text Notes 2900 4250 0    50   ~ 0
UART_RX
Text Notes 2900 4350 0    50   ~ 0
+3.3V
Text Notes 2900 4450 0    50   ~ 0
GND
$Comp
L Device:R R8
U 1 1 604652CC
P 4200 3950
F 0 "R8" V 3993 3950 50  0000 C CNN
F 1 "2k2" V 4084 3950 50  0000 C CNN
F 2 "Resistor_SMD:R_0603_1608Metric_Pad0.98x0.95mm_HandSolder" V 4130 3950 50  0001 C CNN
F 3 "~" H 4200 3950 50  0001 C CNN
	1    4200 3950
	-1   0    0    1   
$EndComp
$Comp
L Device:R R9
U 1 1 60465B16
P 4500 3950
F 0 "R9" V 4293 3950 50  0000 C CNN
F 1 "2k2" V 4384 3950 50  0000 C CNN
F 2 "Resistor_SMD:R_0603_1608Metric_Pad0.98x0.95mm_HandSolder" V 4430 3950 50  0001 C CNN
F 3 "~" H 4500 3950 50  0001 C CNN
	1    4500 3950
	-1   0    0    1   
$EndComp
Wire Wire Line
	4200 4100 4200 4450
Connection ~ 4200 4450
Wire Wire Line
	4200 4450 5100 4450
Wire Wire Line
	4500 4100 4500 4550
Connection ~ 4500 4550
Wire Wire Line
	4500 4550 3850 4550
$Comp
L power:+3V3 #PWR026
U 1 1 60479206
P 4350 3700
F 0 "#PWR026" H 4350 3550 50  0001 C CNN
F 1 "+3V3" H 4365 3873 50  0000 C CNN
F 2 "" H 4350 3700 50  0001 C CNN
F 3 "" H 4350 3700 50  0001 C CNN
	1    4350 3700
	1    0    0    -1  
$EndComp
Wire Wire Line
	4200 3800 4200 3750
Wire Wire Line
	4200 3750 4350 3750
Wire Wire Line
	4350 3750 4350 3700
Wire Wire Line
	4500 3800 4500 3750
Wire Wire Line
	4500 3750 4350 3750
Connection ~ 4350 3750
$EndSCHEMATC
