stm32l4xx_hal_msp.c:65:6:HAL_MspInit	16	static
stm32l4xx_hal_msp.c:87:6:HAL_I2C_MspInit	48	static
stm32l4xx_hal_msp.c:123:6:HAL_I2C_MspDeInit	16	static
stm32l4xx_hal_msp.c:154:6:HAL_SPI_MspInit	48	static
stm32l4xx_hal_msp.c:191:6:HAL_SPI_MspDeInit	16	static
stm32l4xx_hal_msp.c:221:6:HAL_TIM_OC_MspInit	24	static
stm32l4xx_hal_msp.c:246:6:HAL_TIM_OC_MspDeInit	16	static
stm32l4xx_hal_msp.c:271:6:HAL_UART_MspInit	56	static
stm32l4xx_hal_msp.c:349:6:HAL_UART_MspDeInit	16	static
