%TF.GenerationSoftware,KiCad,Pcbnew,5.1.7-a382d34a8~88~ubuntu20.04.1*%
%TF.CreationDate,2021-02-25T19:19:00+01:00*%
%TF.ProjectId,lora_gps,6c6f7261-5f67-4707-932e-6b696361645f,rev?*%
%TF.SameCoordinates,Original*%
%TF.FileFunction,Soldermask,Top*%
%TF.FilePolarity,Negative*%
%FSLAX46Y46*%
G04 Gerber Fmt 4.6, Leading zero omitted, Abs format (unit mm)*
G04 Created by KiCad (PCBNEW 5.1.7-a382d34a8~88~ubuntu20.04.1) date 2021-02-25 19:19:00*
%MOMM*%
%LPD*%
G01*
G04 APERTURE LIST*
%ADD10R,1.060000X0.650000*%
%ADD11O,1.350000X1.350000*%
%ADD12R,1.350000X1.350000*%
%ADD13O,1.700000X1.700000*%
%ADD14R,1.700000X1.700000*%
%ADD15C,3.200000*%
G04 APERTURE END LIST*
%TO.C,R4*%
G36*
G01*
X113300500Y-129457000D02*
X113775500Y-129457000D01*
G75*
G02*
X114013000Y-129694500I0J-237500D01*
G01*
X114013000Y-130194500D01*
G75*
G02*
X113775500Y-130432000I-237500J0D01*
G01*
X113300500Y-130432000D01*
G75*
G02*
X113063000Y-130194500I0J237500D01*
G01*
X113063000Y-129694500D01*
G75*
G02*
X113300500Y-129457000I237500J0D01*
G01*
G37*
G36*
G01*
X113300500Y-127632000D02*
X113775500Y-127632000D01*
G75*
G02*
X114013000Y-127869500I0J-237500D01*
G01*
X114013000Y-128369500D01*
G75*
G02*
X113775500Y-128607000I-237500J0D01*
G01*
X113300500Y-128607000D01*
G75*
G02*
X113063000Y-128369500I0J237500D01*
G01*
X113063000Y-127869500D01*
G75*
G02*
X113300500Y-127632000I237500J0D01*
G01*
G37*
%TD*%
%TO.C,D2*%
G36*
G01*
X104664500Y-125826000D02*
X105139500Y-125826000D01*
G75*
G02*
X105377000Y-126063500I0J-237500D01*
G01*
X105377000Y-126638500D01*
G75*
G02*
X105139500Y-126876000I-237500J0D01*
G01*
X104664500Y-126876000D01*
G75*
G02*
X104427000Y-126638500I0J237500D01*
G01*
X104427000Y-126063500D01*
G75*
G02*
X104664500Y-125826000I237500J0D01*
G01*
G37*
G36*
G01*
X104664500Y-124076000D02*
X105139500Y-124076000D01*
G75*
G02*
X105377000Y-124313500I0J-237500D01*
G01*
X105377000Y-124888500D01*
G75*
G02*
X105139500Y-125126000I-237500J0D01*
G01*
X104664500Y-125126000D01*
G75*
G02*
X104427000Y-124888500I0J237500D01*
G01*
X104427000Y-124313500D01*
G75*
G02*
X104664500Y-124076000I237500J0D01*
G01*
G37*
%TD*%
%TO.C,R3*%
G36*
G01*
X122665500Y-121495000D02*
X122190500Y-121495000D01*
G75*
G02*
X121953000Y-121257500I0J237500D01*
G01*
X121953000Y-120757500D01*
G75*
G02*
X122190500Y-120520000I237500J0D01*
G01*
X122665500Y-120520000D01*
G75*
G02*
X122903000Y-120757500I0J-237500D01*
G01*
X122903000Y-121257500D01*
G75*
G02*
X122665500Y-121495000I-237500J0D01*
G01*
G37*
G36*
G01*
X122665500Y-123320000D02*
X122190500Y-123320000D01*
G75*
G02*
X121953000Y-123082500I0J237500D01*
G01*
X121953000Y-122582500D01*
G75*
G02*
X122190500Y-122345000I237500J0D01*
G01*
X122665500Y-122345000D01*
G75*
G02*
X122903000Y-122582500I0J-237500D01*
G01*
X122903000Y-123082500D01*
G75*
G02*
X122665500Y-123320000I-237500J0D01*
G01*
G37*
%TD*%
%TO.C,D1*%
G36*
G01*
X122665500Y-125126000D02*
X122190500Y-125126000D01*
G75*
G02*
X121953000Y-124888500I0J237500D01*
G01*
X121953000Y-124313500D01*
G75*
G02*
X122190500Y-124076000I237500J0D01*
G01*
X122665500Y-124076000D01*
G75*
G02*
X122903000Y-124313500I0J-237500D01*
G01*
X122903000Y-124888500D01*
G75*
G02*
X122665500Y-125126000I-237500J0D01*
G01*
G37*
G36*
G01*
X122665500Y-126876000D02*
X122190500Y-126876000D01*
G75*
G02*
X121953000Y-126638500I0J237500D01*
G01*
X121953000Y-126063500D01*
G75*
G02*
X122190500Y-125826000I237500J0D01*
G01*
X122665500Y-125826000D01*
G75*
G02*
X122903000Y-126063500I0J-237500D01*
G01*
X122903000Y-126638500D01*
G75*
G02*
X122665500Y-126876000I-237500J0D01*
G01*
G37*
%TD*%
%TO.C,C12*%
G36*
G01*
X123303000Y-119289000D02*
X123303000Y-117439000D01*
G75*
G02*
X123553000Y-117189000I250000J0D01*
G01*
X124553000Y-117189000D01*
G75*
G02*
X124803000Y-117439000I0J-250000D01*
G01*
X124803000Y-119289000D01*
G75*
G02*
X124553000Y-119539000I-250000J0D01*
G01*
X123553000Y-119539000D01*
G75*
G02*
X123303000Y-119289000I0J250000D01*
G01*
G37*
G36*
G01*
X120053000Y-119289000D02*
X120053000Y-117439000D01*
G75*
G02*
X120303000Y-117189000I250000J0D01*
G01*
X121303000Y-117189000D01*
G75*
G02*
X121553000Y-117439000I0J-250000D01*
G01*
X121553000Y-119289000D01*
G75*
G02*
X121303000Y-119539000I-250000J0D01*
G01*
X120303000Y-119539000D01*
G75*
G02*
X120053000Y-119289000I0J250000D01*
G01*
G37*
%TD*%
%TO.C,C9*%
G36*
G01*
X121849000Y-108474500D02*
X121849000Y-108949500D01*
G75*
G02*
X121611500Y-109187000I-237500J0D01*
G01*
X121011500Y-109187000D01*
G75*
G02*
X120774000Y-108949500I0J237500D01*
G01*
X120774000Y-108474500D01*
G75*
G02*
X121011500Y-108237000I237500J0D01*
G01*
X121611500Y-108237000D01*
G75*
G02*
X121849000Y-108474500I0J-237500D01*
G01*
G37*
G36*
G01*
X123574000Y-108474500D02*
X123574000Y-108949500D01*
G75*
G02*
X123336500Y-109187000I-237500J0D01*
G01*
X122736500Y-109187000D01*
G75*
G02*
X122499000Y-108949500I0J237500D01*
G01*
X122499000Y-108474500D01*
G75*
G02*
X122736500Y-108237000I237500J0D01*
G01*
X123336500Y-108237000D01*
G75*
G02*
X123574000Y-108474500I0J-237500D01*
G01*
G37*
%TD*%
%TO.C,C11*%
G36*
G01*
X122499000Y-110473500D02*
X122499000Y-109998500D01*
G75*
G02*
X122736500Y-109761000I237500J0D01*
G01*
X123336500Y-109761000D01*
G75*
G02*
X123574000Y-109998500I0J-237500D01*
G01*
X123574000Y-110473500D01*
G75*
G02*
X123336500Y-110711000I-237500J0D01*
G01*
X122736500Y-110711000D01*
G75*
G02*
X122499000Y-110473500I0J237500D01*
G01*
G37*
G36*
G01*
X120774000Y-110473500D02*
X120774000Y-109998500D01*
G75*
G02*
X121011500Y-109761000I237500J0D01*
G01*
X121611500Y-109761000D01*
G75*
G02*
X121849000Y-109998500I0J-237500D01*
G01*
X121849000Y-110473500D01*
G75*
G02*
X121611500Y-110711000I-237500J0D01*
G01*
X121011500Y-110711000D01*
G75*
G02*
X120774000Y-110473500I0J237500D01*
G01*
G37*
%TD*%
%TO.C,C10*%
G36*
G01*
X122499000Y-116061500D02*
X122499000Y-115586500D01*
G75*
G02*
X122736500Y-115349000I237500J0D01*
G01*
X123336500Y-115349000D01*
G75*
G02*
X123574000Y-115586500I0J-237500D01*
G01*
X123574000Y-116061500D01*
G75*
G02*
X123336500Y-116299000I-237500J0D01*
G01*
X122736500Y-116299000D01*
G75*
G02*
X122499000Y-116061500I0J237500D01*
G01*
G37*
G36*
G01*
X120774000Y-116061500D02*
X120774000Y-115586500D01*
G75*
G02*
X121011500Y-115349000I237500J0D01*
G01*
X121611500Y-115349000D01*
G75*
G02*
X121849000Y-115586500I0J-237500D01*
G01*
X121849000Y-116061500D01*
G75*
G02*
X121611500Y-116299000I-237500J0D01*
G01*
X121011500Y-116299000D01*
G75*
G02*
X120774000Y-116061500I0J237500D01*
G01*
G37*
%TD*%
D10*
%TO.C,U3*%
X120820000Y-113980000D03*
X120820000Y-112080000D03*
X123020000Y-112080000D03*
X123020000Y-113030000D03*
X123020000Y-113980000D03*
%TD*%
D11*
%TO.C,J2*%
X118522000Y-103378000D03*
X116522000Y-103378000D03*
X114522000Y-103378000D03*
X112522000Y-103378000D03*
X110522000Y-103378000D03*
D12*
X108522000Y-103378000D03*
%TD*%
D13*
%TO.C,J3*%
X109474000Y-134180000D03*
X112014000Y-134180000D03*
X114554000Y-134180000D03*
D14*
X117094000Y-134180000D03*
%TD*%
D15*
%TO.C,H4*%
X123305000Y-102625000D03*
%TD*%
%TO.C,H3*%
X123305000Y-133095000D03*
%TD*%
%TO.C,H2*%
X103055000Y-102625000D03*
%TD*%
%TO.C,H1*%
X103055000Y-133095000D03*
%TD*%
%TO.C,C8*%
G36*
G01*
X106917500Y-110927000D02*
X106442500Y-110927000D01*
G75*
G02*
X106205000Y-110689500I0J237500D01*
G01*
X106205000Y-110089500D01*
G75*
G02*
X106442500Y-109852000I237500J0D01*
G01*
X106917500Y-109852000D01*
G75*
G02*
X107155000Y-110089500I0J-237500D01*
G01*
X107155000Y-110689500D01*
G75*
G02*
X106917500Y-110927000I-237500J0D01*
G01*
G37*
G36*
G01*
X106917500Y-112652000D02*
X106442500Y-112652000D01*
G75*
G02*
X106205000Y-112414500I0J237500D01*
G01*
X106205000Y-111814500D01*
G75*
G02*
X106442500Y-111577000I237500J0D01*
G01*
X106917500Y-111577000D01*
G75*
G02*
X107155000Y-111814500I0J-237500D01*
G01*
X107155000Y-112414500D01*
G75*
G02*
X106917500Y-112652000I-237500J0D01*
G01*
G37*
%TD*%
%TO.C,R2*%
G36*
G01*
X105393500Y-110827000D02*
X104918500Y-110827000D01*
G75*
G02*
X104681000Y-110589500I0J237500D01*
G01*
X104681000Y-110089500D01*
G75*
G02*
X104918500Y-109852000I237500J0D01*
G01*
X105393500Y-109852000D01*
G75*
G02*
X105631000Y-110089500I0J-237500D01*
G01*
X105631000Y-110589500D01*
G75*
G02*
X105393500Y-110827000I-237500J0D01*
G01*
G37*
G36*
G01*
X105393500Y-112652000D02*
X104918500Y-112652000D01*
G75*
G02*
X104681000Y-112414500I0J237500D01*
G01*
X104681000Y-111914500D01*
G75*
G02*
X104918500Y-111677000I237500J0D01*
G01*
X105393500Y-111677000D01*
G75*
G02*
X105631000Y-111914500I0J-237500D01*
G01*
X105631000Y-112414500D01*
G75*
G02*
X105393500Y-112652000I-237500J0D01*
G01*
G37*
%TD*%
%TO.C,C7*%
G36*
G01*
X116602500Y-115641000D02*
X117077500Y-115641000D01*
G75*
G02*
X117315000Y-115878500I0J-237500D01*
G01*
X117315000Y-116478500D01*
G75*
G02*
X117077500Y-116716000I-237500J0D01*
G01*
X116602500Y-116716000D01*
G75*
G02*
X116365000Y-116478500I0J237500D01*
G01*
X116365000Y-115878500D01*
G75*
G02*
X116602500Y-115641000I237500J0D01*
G01*
G37*
G36*
G01*
X116602500Y-113916000D02*
X117077500Y-113916000D01*
G75*
G02*
X117315000Y-114153500I0J-237500D01*
G01*
X117315000Y-114753500D01*
G75*
G02*
X117077500Y-114991000I-237500J0D01*
G01*
X116602500Y-114991000D01*
G75*
G02*
X116365000Y-114753500I0J237500D01*
G01*
X116365000Y-114153500D01*
G75*
G02*
X116602500Y-113916000I237500J0D01*
G01*
G37*
%TD*%
%TO.C,U1*%
G36*
G01*
X113962264Y-117394516D02*
X114899180Y-116457600D01*
G75*
G02*
X115005246Y-116457600I53033J-53033D01*
G01*
X115111312Y-116563666D01*
G75*
G02*
X115111312Y-116669732I-53033J-53033D01*
G01*
X114174396Y-117606648D01*
G75*
G02*
X114068330Y-117606648I-53033J53033D01*
G01*
X113962264Y-117500582D01*
G75*
G02*
X113962264Y-117394516I53033J53033D01*
G01*
G37*
G36*
G01*
X114315818Y-117748070D02*
X115252734Y-116811154D01*
G75*
G02*
X115358800Y-116811154I53033J-53033D01*
G01*
X115464866Y-116917220D01*
G75*
G02*
X115464866Y-117023286I-53033J-53033D01*
G01*
X114527950Y-117960202D01*
G75*
G02*
X114421884Y-117960202I-53033J53033D01*
G01*
X114315818Y-117854136D01*
G75*
G02*
X114315818Y-117748070I53033J53033D01*
G01*
G37*
G36*
G01*
X114669371Y-118101623D02*
X115606287Y-117164707D01*
G75*
G02*
X115712353Y-117164707I53033J-53033D01*
G01*
X115818419Y-117270773D01*
G75*
G02*
X115818419Y-117376839I-53033J-53033D01*
G01*
X114881503Y-118313755D01*
G75*
G02*
X114775437Y-118313755I-53033J53033D01*
G01*
X114669371Y-118207689D01*
G75*
G02*
X114669371Y-118101623I53033J53033D01*
G01*
G37*
G36*
G01*
X115022925Y-118455177D02*
X115959841Y-117518261D01*
G75*
G02*
X116065907Y-117518261I53033J-53033D01*
G01*
X116171973Y-117624327D01*
G75*
G02*
X116171973Y-117730393I-53033J-53033D01*
G01*
X115235057Y-118667309D01*
G75*
G02*
X115128991Y-118667309I-53033J53033D01*
G01*
X115022925Y-118561243D01*
G75*
G02*
X115022925Y-118455177I53033J53033D01*
G01*
G37*
G36*
G01*
X115376478Y-118808730D02*
X116313394Y-117871814D01*
G75*
G02*
X116419460Y-117871814I53033J-53033D01*
G01*
X116525526Y-117977880D01*
G75*
G02*
X116525526Y-118083946I-53033J-53033D01*
G01*
X115588610Y-119020862D01*
G75*
G02*
X115482544Y-119020862I-53033J53033D01*
G01*
X115376478Y-118914796D01*
G75*
G02*
X115376478Y-118808730I53033J53033D01*
G01*
G37*
G36*
G01*
X115730031Y-119162283D02*
X116666947Y-118225367D01*
G75*
G02*
X116773013Y-118225367I53033J-53033D01*
G01*
X116879079Y-118331433D01*
G75*
G02*
X116879079Y-118437499I-53033J-53033D01*
G01*
X115942163Y-119374415D01*
G75*
G02*
X115836097Y-119374415I-53033J53033D01*
G01*
X115730031Y-119268349D01*
G75*
G02*
X115730031Y-119162283I53033J53033D01*
G01*
G37*
G36*
G01*
X116083585Y-119515837D02*
X117020501Y-118578921D01*
G75*
G02*
X117126567Y-118578921I53033J-53033D01*
G01*
X117232633Y-118684987D01*
G75*
G02*
X117232633Y-118791053I-53033J-53033D01*
G01*
X116295717Y-119727969D01*
G75*
G02*
X116189651Y-119727969I-53033J53033D01*
G01*
X116083585Y-119621903D01*
G75*
G02*
X116083585Y-119515837I53033J53033D01*
G01*
G37*
G36*
G01*
X116437138Y-119869390D02*
X117374054Y-118932474D01*
G75*
G02*
X117480120Y-118932474I53033J-53033D01*
G01*
X117586186Y-119038540D01*
G75*
G02*
X117586186Y-119144606I-53033J-53033D01*
G01*
X116649270Y-120081522D01*
G75*
G02*
X116543204Y-120081522I-53033J53033D01*
G01*
X116437138Y-119975456D01*
G75*
G02*
X116437138Y-119869390I53033J53033D01*
G01*
G37*
G36*
G01*
X116790691Y-120222943D02*
X117727607Y-119286027D01*
G75*
G02*
X117833673Y-119286027I53033J-53033D01*
G01*
X117939739Y-119392093D01*
G75*
G02*
X117939739Y-119498159I-53033J-53033D01*
G01*
X117002823Y-120435075D01*
G75*
G02*
X116896757Y-120435075I-53033J53033D01*
G01*
X116790691Y-120329009D01*
G75*
G02*
X116790691Y-120222943I53033J53033D01*
G01*
G37*
G36*
G01*
X117144245Y-120576497D02*
X118081161Y-119639581D01*
G75*
G02*
X118187227Y-119639581I53033J-53033D01*
G01*
X118293293Y-119745647D01*
G75*
G02*
X118293293Y-119851713I-53033J-53033D01*
G01*
X117356377Y-120788629D01*
G75*
G02*
X117250311Y-120788629I-53033J53033D01*
G01*
X117144245Y-120682563D01*
G75*
G02*
X117144245Y-120576497I53033J53033D01*
G01*
G37*
G36*
G01*
X117497798Y-120930050D02*
X118434714Y-119993134D01*
G75*
G02*
X118540780Y-119993134I53033J-53033D01*
G01*
X118646846Y-120099200D01*
G75*
G02*
X118646846Y-120205266I-53033J-53033D01*
G01*
X117709930Y-121142182D01*
G75*
G02*
X117603864Y-121142182I-53033J53033D01*
G01*
X117497798Y-121036116D01*
G75*
G02*
X117497798Y-120930050I53033J53033D01*
G01*
G37*
G36*
G01*
X117851352Y-121283604D02*
X118788268Y-120346688D01*
G75*
G02*
X118894334Y-120346688I53033J-53033D01*
G01*
X119000400Y-120452754D01*
G75*
G02*
X119000400Y-120558820I-53033J-53033D01*
G01*
X118063484Y-121495736D01*
G75*
G02*
X117957418Y-121495736I-53033J53033D01*
G01*
X117851352Y-121389670D01*
G75*
G02*
X117851352Y-121283604I53033J53033D01*
G01*
G37*
G36*
G01*
X117851352Y-122450330D02*
X117957418Y-122344264D01*
G75*
G02*
X118063484Y-122344264I53033J-53033D01*
G01*
X119000400Y-123281180D01*
G75*
G02*
X119000400Y-123387246I-53033J-53033D01*
G01*
X118894334Y-123493312D01*
G75*
G02*
X118788268Y-123493312I-53033J53033D01*
G01*
X117851352Y-122556396D01*
G75*
G02*
X117851352Y-122450330I53033J53033D01*
G01*
G37*
G36*
G01*
X117497798Y-122803884D02*
X117603864Y-122697818D01*
G75*
G02*
X117709930Y-122697818I53033J-53033D01*
G01*
X118646846Y-123634734D01*
G75*
G02*
X118646846Y-123740800I-53033J-53033D01*
G01*
X118540780Y-123846866D01*
G75*
G02*
X118434714Y-123846866I-53033J53033D01*
G01*
X117497798Y-122909950D01*
G75*
G02*
X117497798Y-122803884I53033J53033D01*
G01*
G37*
G36*
G01*
X117144245Y-123157437D02*
X117250311Y-123051371D01*
G75*
G02*
X117356377Y-123051371I53033J-53033D01*
G01*
X118293293Y-123988287D01*
G75*
G02*
X118293293Y-124094353I-53033J-53033D01*
G01*
X118187227Y-124200419D01*
G75*
G02*
X118081161Y-124200419I-53033J53033D01*
G01*
X117144245Y-123263503D01*
G75*
G02*
X117144245Y-123157437I53033J53033D01*
G01*
G37*
G36*
G01*
X116790691Y-123510991D02*
X116896757Y-123404925D01*
G75*
G02*
X117002823Y-123404925I53033J-53033D01*
G01*
X117939739Y-124341841D01*
G75*
G02*
X117939739Y-124447907I-53033J-53033D01*
G01*
X117833673Y-124553973D01*
G75*
G02*
X117727607Y-124553973I-53033J53033D01*
G01*
X116790691Y-123617057D01*
G75*
G02*
X116790691Y-123510991I53033J53033D01*
G01*
G37*
G36*
G01*
X116437138Y-123864544D02*
X116543204Y-123758478D01*
G75*
G02*
X116649270Y-123758478I53033J-53033D01*
G01*
X117586186Y-124695394D01*
G75*
G02*
X117586186Y-124801460I-53033J-53033D01*
G01*
X117480120Y-124907526D01*
G75*
G02*
X117374054Y-124907526I-53033J53033D01*
G01*
X116437138Y-123970610D01*
G75*
G02*
X116437138Y-123864544I53033J53033D01*
G01*
G37*
G36*
G01*
X116083585Y-124218097D02*
X116189651Y-124112031D01*
G75*
G02*
X116295717Y-124112031I53033J-53033D01*
G01*
X117232633Y-125048947D01*
G75*
G02*
X117232633Y-125155013I-53033J-53033D01*
G01*
X117126567Y-125261079D01*
G75*
G02*
X117020501Y-125261079I-53033J53033D01*
G01*
X116083585Y-124324163D01*
G75*
G02*
X116083585Y-124218097I53033J53033D01*
G01*
G37*
G36*
G01*
X115730031Y-124571651D02*
X115836097Y-124465585D01*
G75*
G02*
X115942163Y-124465585I53033J-53033D01*
G01*
X116879079Y-125402501D01*
G75*
G02*
X116879079Y-125508567I-53033J-53033D01*
G01*
X116773013Y-125614633D01*
G75*
G02*
X116666947Y-125614633I-53033J53033D01*
G01*
X115730031Y-124677717D01*
G75*
G02*
X115730031Y-124571651I53033J53033D01*
G01*
G37*
G36*
G01*
X115376478Y-124925204D02*
X115482544Y-124819138D01*
G75*
G02*
X115588610Y-124819138I53033J-53033D01*
G01*
X116525526Y-125756054D01*
G75*
G02*
X116525526Y-125862120I-53033J-53033D01*
G01*
X116419460Y-125968186D01*
G75*
G02*
X116313394Y-125968186I-53033J53033D01*
G01*
X115376478Y-125031270D01*
G75*
G02*
X115376478Y-124925204I53033J53033D01*
G01*
G37*
G36*
G01*
X115022925Y-125278757D02*
X115128991Y-125172691D01*
G75*
G02*
X115235057Y-125172691I53033J-53033D01*
G01*
X116171973Y-126109607D01*
G75*
G02*
X116171973Y-126215673I-53033J-53033D01*
G01*
X116065907Y-126321739D01*
G75*
G02*
X115959841Y-126321739I-53033J53033D01*
G01*
X115022925Y-125384823D01*
G75*
G02*
X115022925Y-125278757I53033J53033D01*
G01*
G37*
G36*
G01*
X114669371Y-125632311D02*
X114775437Y-125526245D01*
G75*
G02*
X114881503Y-125526245I53033J-53033D01*
G01*
X115818419Y-126463161D01*
G75*
G02*
X115818419Y-126569227I-53033J-53033D01*
G01*
X115712353Y-126675293D01*
G75*
G02*
X115606287Y-126675293I-53033J53033D01*
G01*
X114669371Y-125738377D01*
G75*
G02*
X114669371Y-125632311I53033J53033D01*
G01*
G37*
G36*
G01*
X114315818Y-125985864D02*
X114421884Y-125879798D01*
G75*
G02*
X114527950Y-125879798I53033J-53033D01*
G01*
X115464866Y-126816714D01*
G75*
G02*
X115464866Y-126922780I-53033J-53033D01*
G01*
X115358800Y-127028846D01*
G75*
G02*
X115252734Y-127028846I-53033J53033D01*
G01*
X114315818Y-126091930D01*
G75*
G02*
X114315818Y-125985864I53033J53033D01*
G01*
G37*
G36*
G01*
X113962264Y-126339418D02*
X114068330Y-126233352D01*
G75*
G02*
X114174396Y-126233352I53033J-53033D01*
G01*
X115111312Y-127170268D01*
G75*
G02*
X115111312Y-127276334I-53033J-53033D01*
G01*
X115005246Y-127382400D01*
G75*
G02*
X114899180Y-127382400I-53033J53033D01*
G01*
X113962264Y-126445484D01*
G75*
G02*
X113962264Y-126339418I53033J53033D01*
G01*
G37*
G36*
G01*
X111964688Y-127170268D02*
X112901604Y-126233352D01*
G75*
G02*
X113007670Y-126233352I53033J-53033D01*
G01*
X113113736Y-126339418D01*
G75*
G02*
X113113736Y-126445484I-53033J-53033D01*
G01*
X112176820Y-127382400D01*
G75*
G02*
X112070754Y-127382400I-53033J53033D01*
G01*
X111964688Y-127276334D01*
G75*
G02*
X111964688Y-127170268I53033J53033D01*
G01*
G37*
G36*
G01*
X111611134Y-126816714D02*
X112548050Y-125879798D01*
G75*
G02*
X112654116Y-125879798I53033J-53033D01*
G01*
X112760182Y-125985864D01*
G75*
G02*
X112760182Y-126091930I-53033J-53033D01*
G01*
X111823266Y-127028846D01*
G75*
G02*
X111717200Y-127028846I-53033J53033D01*
G01*
X111611134Y-126922780D01*
G75*
G02*
X111611134Y-126816714I53033J53033D01*
G01*
G37*
G36*
G01*
X111257581Y-126463161D02*
X112194497Y-125526245D01*
G75*
G02*
X112300563Y-125526245I53033J-53033D01*
G01*
X112406629Y-125632311D01*
G75*
G02*
X112406629Y-125738377I-53033J-53033D01*
G01*
X111469713Y-126675293D01*
G75*
G02*
X111363647Y-126675293I-53033J53033D01*
G01*
X111257581Y-126569227D01*
G75*
G02*
X111257581Y-126463161I53033J53033D01*
G01*
G37*
G36*
G01*
X110904027Y-126109607D02*
X111840943Y-125172691D01*
G75*
G02*
X111947009Y-125172691I53033J-53033D01*
G01*
X112053075Y-125278757D01*
G75*
G02*
X112053075Y-125384823I-53033J-53033D01*
G01*
X111116159Y-126321739D01*
G75*
G02*
X111010093Y-126321739I-53033J53033D01*
G01*
X110904027Y-126215673D01*
G75*
G02*
X110904027Y-126109607I53033J53033D01*
G01*
G37*
G36*
G01*
X110550474Y-125756054D02*
X111487390Y-124819138D01*
G75*
G02*
X111593456Y-124819138I53033J-53033D01*
G01*
X111699522Y-124925204D01*
G75*
G02*
X111699522Y-125031270I-53033J-53033D01*
G01*
X110762606Y-125968186D01*
G75*
G02*
X110656540Y-125968186I-53033J53033D01*
G01*
X110550474Y-125862120D01*
G75*
G02*
X110550474Y-125756054I53033J53033D01*
G01*
G37*
G36*
G01*
X110196921Y-125402501D02*
X111133837Y-124465585D01*
G75*
G02*
X111239903Y-124465585I53033J-53033D01*
G01*
X111345969Y-124571651D01*
G75*
G02*
X111345969Y-124677717I-53033J-53033D01*
G01*
X110409053Y-125614633D01*
G75*
G02*
X110302987Y-125614633I-53033J53033D01*
G01*
X110196921Y-125508567D01*
G75*
G02*
X110196921Y-125402501I53033J53033D01*
G01*
G37*
G36*
G01*
X109843367Y-125048947D02*
X110780283Y-124112031D01*
G75*
G02*
X110886349Y-124112031I53033J-53033D01*
G01*
X110992415Y-124218097D01*
G75*
G02*
X110992415Y-124324163I-53033J-53033D01*
G01*
X110055499Y-125261079D01*
G75*
G02*
X109949433Y-125261079I-53033J53033D01*
G01*
X109843367Y-125155013D01*
G75*
G02*
X109843367Y-125048947I53033J53033D01*
G01*
G37*
G36*
G01*
X109489814Y-124695394D02*
X110426730Y-123758478D01*
G75*
G02*
X110532796Y-123758478I53033J-53033D01*
G01*
X110638862Y-123864544D01*
G75*
G02*
X110638862Y-123970610I-53033J-53033D01*
G01*
X109701946Y-124907526D01*
G75*
G02*
X109595880Y-124907526I-53033J53033D01*
G01*
X109489814Y-124801460D01*
G75*
G02*
X109489814Y-124695394I53033J53033D01*
G01*
G37*
G36*
G01*
X109136261Y-124341841D02*
X110073177Y-123404925D01*
G75*
G02*
X110179243Y-123404925I53033J-53033D01*
G01*
X110285309Y-123510991D01*
G75*
G02*
X110285309Y-123617057I-53033J-53033D01*
G01*
X109348393Y-124553973D01*
G75*
G02*
X109242327Y-124553973I-53033J53033D01*
G01*
X109136261Y-124447907D01*
G75*
G02*
X109136261Y-124341841I53033J53033D01*
G01*
G37*
G36*
G01*
X108782707Y-123988287D02*
X109719623Y-123051371D01*
G75*
G02*
X109825689Y-123051371I53033J-53033D01*
G01*
X109931755Y-123157437D01*
G75*
G02*
X109931755Y-123263503I-53033J-53033D01*
G01*
X108994839Y-124200419D01*
G75*
G02*
X108888773Y-124200419I-53033J53033D01*
G01*
X108782707Y-124094353D01*
G75*
G02*
X108782707Y-123988287I53033J53033D01*
G01*
G37*
G36*
G01*
X108429154Y-123634734D02*
X109366070Y-122697818D01*
G75*
G02*
X109472136Y-122697818I53033J-53033D01*
G01*
X109578202Y-122803884D01*
G75*
G02*
X109578202Y-122909950I-53033J-53033D01*
G01*
X108641286Y-123846866D01*
G75*
G02*
X108535220Y-123846866I-53033J53033D01*
G01*
X108429154Y-123740800D01*
G75*
G02*
X108429154Y-123634734I53033J53033D01*
G01*
G37*
G36*
G01*
X108075600Y-123281180D02*
X109012516Y-122344264D01*
G75*
G02*
X109118582Y-122344264I53033J-53033D01*
G01*
X109224648Y-122450330D01*
G75*
G02*
X109224648Y-122556396I-53033J-53033D01*
G01*
X108287732Y-123493312D01*
G75*
G02*
X108181666Y-123493312I-53033J53033D01*
G01*
X108075600Y-123387246D01*
G75*
G02*
X108075600Y-123281180I53033J53033D01*
G01*
G37*
G36*
G01*
X108075600Y-120452754D02*
X108181666Y-120346688D01*
G75*
G02*
X108287732Y-120346688I53033J-53033D01*
G01*
X109224648Y-121283604D01*
G75*
G02*
X109224648Y-121389670I-53033J-53033D01*
G01*
X109118582Y-121495736D01*
G75*
G02*
X109012516Y-121495736I-53033J53033D01*
G01*
X108075600Y-120558820D01*
G75*
G02*
X108075600Y-120452754I53033J53033D01*
G01*
G37*
G36*
G01*
X108429154Y-120099200D02*
X108535220Y-119993134D01*
G75*
G02*
X108641286Y-119993134I53033J-53033D01*
G01*
X109578202Y-120930050D01*
G75*
G02*
X109578202Y-121036116I-53033J-53033D01*
G01*
X109472136Y-121142182D01*
G75*
G02*
X109366070Y-121142182I-53033J53033D01*
G01*
X108429154Y-120205266D01*
G75*
G02*
X108429154Y-120099200I53033J53033D01*
G01*
G37*
G36*
G01*
X108782707Y-119745647D02*
X108888773Y-119639581D01*
G75*
G02*
X108994839Y-119639581I53033J-53033D01*
G01*
X109931755Y-120576497D01*
G75*
G02*
X109931755Y-120682563I-53033J-53033D01*
G01*
X109825689Y-120788629D01*
G75*
G02*
X109719623Y-120788629I-53033J53033D01*
G01*
X108782707Y-119851713D01*
G75*
G02*
X108782707Y-119745647I53033J53033D01*
G01*
G37*
G36*
G01*
X109136261Y-119392093D02*
X109242327Y-119286027D01*
G75*
G02*
X109348393Y-119286027I53033J-53033D01*
G01*
X110285309Y-120222943D01*
G75*
G02*
X110285309Y-120329009I-53033J-53033D01*
G01*
X110179243Y-120435075D01*
G75*
G02*
X110073177Y-120435075I-53033J53033D01*
G01*
X109136261Y-119498159D01*
G75*
G02*
X109136261Y-119392093I53033J53033D01*
G01*
G37*
G36*
G01*
X109489814Y-119038540D02*
X109595880Y-118932474D01*
G75*
G02*
X109701946Y-118932474I53033J-53033D01*
G01*
X110638862Y-119869390D01*
G75*
G02*
X110638862Y-119975456I-53033J-53033D01*
G01*
X110532796Y-120081522D01*
G75*
G02*
X110426730Y-120081522I-53033J53033D01*
G01*
X109489814Y-119144606D01*
G75*
G02*
X109489814Y-119038540I53033J53033D01*
G01*
G37*
G36*
G01*
X109843367Y-118684987D02*
X109949433Y-118578921D01*
G75*
G02*
X110055499Y-118578921I53033J-53033D01*
G01*
X110992415Y-119515837D01*
G75*
G02*
X110992415Y-119621903I-53033J-53033D01*
G01*
X110886349Y-119727969D01*
G75*
G02*
X110780283Y-119727969I-53033J53033D01*
G01*
X109843367Y-118791053D01*
G75*
G02*
X109843367Y-118684987I53033J53033D01*
G01*
G37*
G36*
G01*
X110196921Y-118331433D02*
X110302987Y-118225367D01*
G75*
G02*
X110409053Y-118225367I53033J-53033D01*
G01*
X111345969Y-119162283D01*
G75*
G02*
X111345969Y-119268349I-53033J-53033D01*
G01*
X111239903Y-119374415D01*
G75*
G02*
X111133837Y-119374415I-53033J53033D01*
G01*
X110196921Y-118437499D01*
G75*
G02*
X110196921Y-118331433I53033J53033D01*
G01*
G37*
G36*
G01*
X110550474Y-117977880D02*
X110656540Y-117871814D01*
G75*
G02*
X110762606Y-117871814I53033J-53033D01*
G01*
X111699522Y-118808730D01*
G75*
G02*
X111699522Y-118914796I-53033J-53033D01*
G01*
X111593456Y-119020862D01*
G75*
G02*
X111487390Y-119020862I-53033J53033D01*
G01*
X110550474Y-118083946D01*
G75*
G02*
X110550474Y-117977880I53033J53033D01*
G01*
G37*
G36*
G01*
X110904027Y-117624327D02*
X111010093Y-117518261D01*
G75*
G02*
X111116159Y-117518261I53033J-53033D01*
G01*
X112053075Y-118455177D01*
G75*
G02*
X112053075Y-118561243I-53033J-53033D01*
G01*
X111947009Y-118667309D01*
G75*
G02*
X111840943Y-118667309I-53033J53033D01*
G01*
X110904027Y-117730393D01*
G75*
G02*
X110904027Y-117624327I53033J53033D01*
G01*
G37*
G36*
G01*
X111257581Y-117270773D02*
X111363647Y-117164707D01*
G75*
G02*
X111469713Y-117164707I53033J-53033D01*
G01*
X112406629Y-118101623D01*
G75*
G02*
X112406629Y-118207689I-53033J-53033D01*
G01*
X112300563Y-118313755D01*
G75*
G02*
X112194497Y-118313755I-53033J53033D01*
G01*
X111257581Y-117376839D01*
G75*
G02*
X111257581Y-117270773I53033J53033D01*
G01*
G37*
G36*
G01*
X111611134Y-116917220D02*
X111717200Y-116811154D01*
G75*
G02*
X111823266Y-116811154I53033J-53033D01*
G01*
X112760182Y-117748070D01*
G75*
G02*
X112760182Y-117854136I-53033J-53033D01*
G01*
X112654116Y-117960202D01*
G75*
G02*
X112548050Y-117960202I-53033J53033D01*
G01*
X111611134Y-117023286D01*
G75*
G02*
X111611134Y-116917220I53033J53033D01*
G01*
G37*
G36*
G01*
X111964688Y-116563666D02*
X112070754Y-116457600D01*
G75*
G02*
X112176820Y-116457600I53033J-53033D01*
G01*
X113113736Y-117394516D01*
G75*
G02*
X113113736Y-117500582I-53033J-53033D01*
G01*
X113007670Y-117606648D01*
G75*
G02*
X112901604Y-117606648I-53033J53033D01*
G01*
X111964688Y-116669732D01*
G75*
G02*
X111964688Y-116563666I53033J53033D01*
G01*
G37*
%TD*%
%TO.C,C2*%
G36*
G01*
X120633500Y-121595000D02*
X120158500Y-121595000D01*
G75*
G02*
X119921000Y-121357500I0J237500D01*
G01*
X119921000Y-120757500D01*
G75*
G02*
X120158500Y-120520000I237500J0D01*
G01*
X120633500Y-120520000D01*
G75*
G02*
X120871000Y-120757500I0J-237500D01*
G01*
X120871000Y-121357500D01*
G75*
G02*
X120633500Y-121595000I-237500J0D01*
G01*
G37*
G36*
G01*
X120633500Y-123320000D02*
X120158500Y-123320000D01*
G75*
G02*
X119921000Y-123082500I0J237500D01*
G01*
X119921000Y-122482500D01*
G75*
G02*
X120158500Y-122245000I237500J0D01*
G01*
X120633500Y-122245000D01*
G75*
G02*
X120871000Y-122482500I0J-237500D01*
G01*
X120871000Y-123082500D01*
G75*
G02*
X120633500Y-123320000I-237500J0D01*
G01*
G37*
%TD*%
%TO.C,C1*%
G36*
G01*
X113975000Y-114824500D02*
X113975000Y-115299500D01*
G75*
G02*
X113737500Y-115537000I-237500J0D01*
G01*
X113137500Y-115537000D01*
G75*
G02*
X112900000Y-115299500I0J237500D01*
G01*
X112900000Y-114824500D01*
G75*
G02*
X113137500Y-114587000I237500J0D01*
G01*
X113737500Y-114587000D01*
G75*
G02*
X113975000Y-114824500I0J-237500D01*
G01*
G37*
G36*
G01*
X115700000Y-114824500D02*
X115700000Y-115299500D01*
G75*
G02*
X115462500Y-115537000I-237500J0D01*
G01*
X114862500Y-115537000D01*
G75*
G02*
X114625000Y-115299500I0J237500D01*
G01*
X114625000Y-114824500D01*
G75*
G02*
X114862500Y-114587000I237500J0D01*
G01*
X115462500Y-114587000D01*
G75*
G02*
X115700000Y-114824500I0J-237500D01*
G01*
G37*
%TD*%
%TO.C,C4*%
G36*
G01*
X105085000Y-116856500D02*
X105085000Y-117331500D01*
G75*
G02*
X104847500Y-117569000I-237500J0D01*
G01*
X104247500Y-117569000D01*
G75*
G02*
X104010000Y-117331500I0J237500D01*
G01*
X104010000Y-116856500D01*
G75*
G02*
X104247500Y-116619000I237500J0D01*
G01*
X104847500Y-116619000D01*
G75*
G02*
X105085000Y-116856500I0J-237500D01*
G01*
G37*
G36*
G01*
X106810000Y-116856500D02*
X106810000Y-117331500D01*
G75*
G02*
X106572500Y-117569000I-237500J0D01*
G01*
X105972500Y-117569000D01*
G75*
G02*
X105735000Y-117331500I0J237500D01*
G01*
X105735000Y-116856500D01*
G75*
G02*
X105972500Y-116619000I237500J0D01*
G01*
X106572500Y-116619000D01*
G75*
G02*
X106810000Y-116856500I0J-237500D01*
G01*
G37*
%TD*%
%TO.C,C6*%
G36*
G01*
X108220500Y-115641000D02*
X108695500Y-115641000D01*
G75*
G02*
X108933000Y-115878500I0J-237500D01*
G01*
X108933000Y-116478500D01*
G75*
G02*
X108695500Y-116716000I-237500J0D01*
G01*
X108220500Y-116716000D01*
G75*
G02*
X107983000Y-116478500I0J237500D01*
G01*
X107983000Y-115878500D01*
G75*
G02*
X108220500Y-115641000I237500J0D01*
G01*
G37*
G36*
G01*
X108220500Y-113916000D02*
X108695500Y-113916000D01*
G75*
G02*
X108933000Y-114153500I0J-237500D01*
G01*
X108933000Y-114753500D01*
G75*
G02*
X108695500Y-114991000I-237500J0D01*
G01*
X108220500Y-114991000D01*
G75*
G02*
X107983000Y-114753500I0J237500D01*
G01*
X107983000Y-114153500D01*
G75*
G02*
X108220500Y-113916000I237500J0D01*
G01*
G37*
%TD*%
%TO.C,R1*%
G36*
G01*
X110219500Y-114891000D02*
X109744500Y-114891000D01*
G75*
G02*
X109507000Y-114653500I0J237500D01*
G01*
X109507000Y-114153500D01*
G75*
G02*
X109744500Y-113916000I237500J0D01*
G01*
X110219500Y-113916000D01*
G75*
G02*
X110457000Y-114153500I0J-237500D01*
G01*
X110457000Y-114653500D01*
G75*
G02*
X110219500Y-114891000I-237500J0D01*
G01*
G37*
G36*
G01*
X110219500Y-116716000D02*
X109744500Y-116716000D01*
G75*
G02*
X109507000Y-116478500I0J237500D01*
G01*
X109507000Y-115978500D01*
G75*
G02*
X109744500Y-115741000I237500J0D01*
G01*
X110219500Y-115741000D01*
G75*
G02*
X110457000Y-115978500I0J-237500D01*
G01*
X110457000Y-116478500D01*
G75*
G02*
X110219500Y-116716000I-237500J0D01*
G01*
G37*
%TD*%
%TO.C,C3*%
G36*
G01*
X110673000Y-128794500D02*
X110673000Y-129269500D01*
G75*
G02*
X110435500Y-129507000I-237500J0D01*
G01*
X109835500Y-129507000D01*
G75*
G02*
X109598000Y-129269500I0J237500D01*
G01*
X109598000Y-128794500D01*
G75*
G02*
X109835500Y-128557000I237500J0D01*
G01*
X110435500Y-128557000D01*
G75*
G02*
X110673000Y-128794500I0J-237500D01*
G01*
G37*
G36*
G01*
X112398000Y-128794500D02*
X112398000Y-129269500D01*
G75*
G02*
X112160500Y-129507000I-237500J0D01*
G01*
X111560500Y-129507000D01*
G75*
G02*
X111323000Y-129269500I0J237500D01*
G01*
X111323000Y-128794500D01*
G75*
G02*
X111560500Y-128557000I237500J0D01*
G01*
X112160500Y-128557000D01*
G75*
G02*
X112398000Y-128794500I0J-237500D01*
G01*
G37*
%TD*%
%TO.C,Y1*%
G36*
G01*
X114522000Y-111365000D02*
X114522000Y-109615000D01*
G75*
G02*
X115147000Y-108990000I625000J0D01*
G01*
X116397000Y-108990000D01*
G75*
G02*
X117022000Y-109615000I0J-625000D01*
G01*
X117022000Y-111365000D01*
G75*
G02*
X116397000Y-111990000I-625000J0D01*
G01*
X115147000Y-111990000D01*
G75*
G02*
X114522000Y-111365000I0J625000D01*
G01*
G37*
G36*
G01*
X108022000Y-111365000D02*
X108022000Y-109615000D01*
G75*
G02*
X108647000Y-108990000I625000J0D01*
G01*
X109897000Y-108990000D01*
G75*
G02*
X110522000Y-109615000I0J-625000D01*
G01*
X110522000Y-111365000D01*
G75*
G02*
X109897000Y-111990000I-625000J0D01*
G01*
X108647000Y-111990000D01*
G75*
G02*
X108022000Y-111365000I0J625000D01*
G01*
G37*
%TD*%
M02*
