M48
; DRILL file {KiCad 5.1.7-a382d34a8~88~ubuntu20.04.1} date Sat Feb  6 14:48:35 2021
; FORMAT={-:-/ absolute / inch / decimal}
; #@! TF.CreationDate,2021-02-06T14:48:35+01:00
; #@! TF.GenerationSoftware,Kicad,Pcbnew,5.1.7-a382d34a8~88~ubuntu20.04.1
FMAT,2
INCH
T1C0.0118
T2C0.0157
T3C0.0315
T4C0.0394
T5C0.1260
%
G90
G05
T1
X5.0594Y-4.64
X5.0987Y-4.64
X5.1381Y-4.64
X5.1775Y-4.64
X5.2169Y-4.64
X5.2562Y-4.64
X5.2956Y-4.64
X5.335Y-4.64
X5.335Y-4.6794
X5.335Y-4.7187
X5.335Y-4.7581
X5.335Y-4.7975
X5.335Y-4.8369
X5.335Y-4.8762
X5.335Y-4.9156
X5.335Y-4.955
X5.335Y-4.9943
X5.335Y-5.0337
X5.335Y-5.0731
X5.335Y-5.1124
X5.335Y-5.1518
X5.335Y-5.1912
X5.335Y-5.2306
X5.335Y-5.2699
X5.335Y-5.3093
X5.335Y-5.3487
X5.3743Y-5.3487
X5.4137Y-5.3487
X5.4531Y-5.3487
X5.4924Y-5.3487
X5.5318Y-3.9313
X5.5318Y-3.9707
X5.5318Y-4.0101
X5.5318Y-4.0494
X5.5318Y-4.0888
X5.5318Y-4.1282
X5.5318Y-4.1676
X5.5318Y-4.2069
X5.5318Y-4.2463
X5.5318Y-4.2857
X5.5318Y-4.325
X5.5318Y-4.3644
X5.5318Y-4.4038
X5.5318Y-4.4431
X5.5318Y-4.4825
X5.5318Y-4.5219
X5.5318Y-4.5613
X5.5318Y-4.6006
X5.5318Y-4.64
X5.5318Y-4.6794
X5.5318Y-4.7187
X5.5318Y-4.7581
X5.5318Y-4.7975
X5.5318Y-4.8369
X5.5318Y-4.8762
X5.5318Y-4.9156
X5.5318Y-4.955
X5.5318Y-4.9943
X5.5318Y-5.0337
X5.5318Y-5.0731
X5.5318Y-5.1124
X5.5318Y-5.1518
X5.5318Y-5.1912
X5.5318Y-5.2306
X5.5318Y-5.2699
X5.5318Y-5.3093
X5.5318Y-5.3487
X5.5712Y-3.9313
X5.6106Y-3.9313
X5.6499Y-3.9313
X5.6893Y-3.9313
X5.7287Y-3.9313
X5.7287Y-3.9707
X5.7287Y-4.0101
X5.7287Y-4.0494
X5.7287Y-4.0888
X5.7287Y-4.1282
X5.7287Y-4.1676
X5.7287Y-4.2069
X5.7287Y-4.2463
X5.7287Y-4.2857
X5.7287Y-4.325
X5.7287Y-4.3644
X5.7287Y-4.4038
X5.7287Y-4.4431
X5.7287Y-4.4825
X5.7287Y-4.5219
X5.7287Y-4.5613
X5.7287Y-4.6006
X5.7287Y-4.64
X5.7287Y-4.6794
X5.7287Y-4.7187
X5.7287Y-4.7581
X5.7287Y-4.7975
X5.7287Y-4.8369
X5.7287Y-4.8762
X5.7287Y-4.9156
X5.7287Y-4.955
X5.7287Y-4.9943
X5.7287Y-5.0337
X5.7287Y-5.0731
X5.7287Y-5.1124
X5.7287Y-5.1518
X5.7287Y-5.1912
X5.7287Y-5.2306
X5.7287Y-5.2699
X5.7287Y-5.3093
X5.7287Y-5.3487
X5.768Y-5.3487
X5.8074Y-5.3487
X5.8468Y-5.3487
X5.8861Y-5.3487
X5.9255Y-3.9313
X5.9255Y-3.9707
X5.9255Y-4.0101
X5.9255Y-4.0494
X5.9255Y-4.0888
X5.9255Y-4.1282
X5.9255Y-4.1676
X5.9255Y-4.2069
X5.9255Y-4.2463
X5.9255Y-4.2857
X5.9255Y-4.325
X5.9255Y-4.3644
X5.9255Y-4.4038
X5.9255Y-4.4431
X5.9255Y-4.4825
X5.9255Y-4.5219
X5.9255Y-4.5613
X5.9255Y-4.6006
X5.9255Y-4.64
X5.9255Y-4.6794
X5.9255Y-4.7187
X5.9255Y-4.7581
X5.9255Y-4.7975
X5.9255Y-4.8369
X5.9255Y-4.8762
X5.9255Y-4.9156
X5.9255Y-4.955
X5.9255Y-4.9943
X5.9255Y-5.0337
X5.9255Y-5.0731
X5.9255Y-5.1124
X5.9255Y-5.1518
X5.9255Y-5.1912
X5.9255Y-5.2306
X5.9255Y-5.2699
X5.9255Y-5.3093
X5.9255Y-5.3487
T2
X4.06Y-4.61
X4.08Y-4.9
X4.2Y-4.29
X4.22Y-4.7
X4.22Y-4.77
X4.22Y-4.84
X4.22Y-4.92
X4.22Y-4.99
X4.28Y-5.08
X4.3Y-4.62
X4.37Y-4.74
X4.44Y-4.92
X4.47Y-4.58
X4.49Y-4.67
X4.59Y-5.02
X4.6Y-4.62
X4.6Y-4.81
X4.64Y-4.54
X4.67Y-5.02
X4.69Y-4.64
X4.6902Y-4.8202
X4.72Y-4.92
X4.72Y-4.99
X4.7202Y-4.2798
X4.88Y-4.89
X4.88Y-4.96
X4.9Y-4.34
X4.9Y-4.45
X4.9Y-4.52
X4.9Y-4.57
T3
X4.2725Y-4.07
X4.3513Y-4.07
X4.43Y-4.07
X4.5087Y-4.07
X4.5875Y-4.07
X4.6662Y-4.07
T4
X4.31Y-5.2827
X4.41Y-5.2827
X4.51Y-5.2827
X4.61Y-5.2827
T5
X4.8545Y-5.24
X4.0573Y-4.0404
X4.8545Y-4.0404
X4.0573Y-5.24
T0
M30
