(module antenna (layer F.Cu) (tedit 601DBB99)
  (fp_text reference Ref** (at 0 0) (layer F.SilkS) hide
    (effects (font (size 1.27 1.27) (thickness 0.15)))
  )
  (fp_text value Val** (at 0 0) (layer F.SilkS) hide
    (effects (font (size 1.27 1.27) (thickness 0.15)))
  )
  (fp_poly (pts (xy 19.028833 -16.996833) (xy -16.975667 -16.996833) (xy -16.975667 -14.012333) (xy 19.028833 -14.012333)
    (xy 19.028833 -7.006167) (xy 1.016 -7.006167) (xy 1.016 0) (xy -0.994833 0)
    (xy -0.994833 -9.017) (xy 16.996833 -9.017) (xy 16.996833 -12.0015) (xy -18.9865 -12.0015)
    (xy -18.9865 -19.007667) (xy 16.996833 -19.007667) (xy 16.996833 -21.992167) (xy -18.9865 -21.992167)
    (xy -18.9865 -24.024167) (xy 19.028833 -24.024167) (xy 19.028833 -16.996833)) (layer F.Cu) (width 0.01))
  (fp_poly (pts (xy 19.028833 -16.996833) (xy -16.975667 -16.996833) (xy -16.975667 -14.012333) (xy 19.028833 -14.012333)
    (xy 19.028833 -7.006167) (xy 1.016 -7.006167) (xy 1.016 0) (xy -0.994833 0)
    (xy -0.994833 -9.017) (xy 16.996833 -9.017) (xy 16.996833 -12.0015) (xy -18.9865 -12.0015)
    (xy -18.9865 -19.007667) (xy 16.996833 -19.007667) (xy 16.996833 -21.992167) (xy -18.9865 -21.992167)
    (xy -18.9865 -24.024167) (xy 19.028833 -24.024167) (xy 19.028833 -16.996833)) (layer B.Cu) (width 0.01))
  (pad 1 thru_hole circle (at 0 -1) (size 0.6 0.6) (drill 0.3) (layers *.Cu *.Mask))
  (pad 2 thru_hole circle (at 0 -2) (size 0.6 0.6) (drill 0.3) (layers *.Cu *.Mask))
  (pad 2 thru_hole circle (at 0 -3) (size 0.6 0.6) (drill 0.3) (layers *.Cu *.Mask))
  (pad 2 thru_hole circle (at 0 -4) (size 0.6 0.6) (drill 0.3) (layers *.Cu *.Mask))
  (pad 2 thru_hole circle (at 0 -5) (size 0.6 0.6) (drill 0.3) (layers *.Cu *.Mask))
  (pad 2 thru_hole circle (at 0 -6) (size 0.6 0.6) (drill 0.3) (layers *.Cu *.Mask))
  (pad 2 thru_hole circle (at 0 -7) (size 0.6 0.6) (drill 0.3) (layers *.Cu *.Mask))
  (pad 2 thru_hole circle (at 0 -8) (size 0.6 0.6) (drill 0.3) (layers *.Cu *.Mask))
  (pad 2 thru_hole circle (at 1 -8) (size 0.6 0.6) (drill 0.3) (layers *.Cu *.Mask))
  (pad 2 thru_hole circle (at 2 -8) (size 0.6 0.6) (drill 0.3) (layers *.Cu *.Mask))
  (pad 2 thru_hole circle (at 3 -8) (size 0.6 0.6) (drill 0.3) (layers *.Cu *.Mask))
  (pad 2 thru_hole circle (at 4 -8) (size 0.6 0.6) (drill 0.3) (layers *.Cu *.Mask))
  (pad 2 thru_hole circle (at 5 -8) (size 0.6 0.6) (drill 0.3) (layers *.Cu *.Mask))
  (pad 7 thru_hole circle (at 6 -8) (size 0.6 0.6) (drill 0.3) (layers *.Cu *.Mask))
  (pad 8 thru_hole circle (at 7 -8) (size 0.6 0.6) (drill 0.3) (layers *.Cu *.Mask))
  (pad 9 thru_hole circle (at 8 -8) (size 0.6 0.6) (drill 0.3) (layers *.Cu *.Mask))
  (pad 10 thru_hole circle (at 9 -8) (size 0.6 0.6) (drill 0.3) (layers *.Cu *.Mask))
  (pad 11 thru_hole circle (at 10 -8) (size 0.6 0.6) (drill 0.3) (layers *.Cu *.Mask))
  (pad 12 thru_hole circle (at 11 -8) (size 0.6 0.6) (drill 0.3) (layers *.Cu *.Mask))
  (pad 13 thru_hole circle (at 12 -8) (size 0.6 0.6) (drill 0.3) (layers *.Cu *.Mask))
  (pad 14 thru_hole circle (at 13 -8) (size 0.6 0.6) (drill 0.3) (layers *.Cu *.Mask))
  (pad 15 thru_hole circle (at 14 -8) (size 0.6 0.6) (drill 0.3) (layers *.Cu *.Mask))
  (pad 16 thru_hole circle (at 15 -8) (size 0.6 0.6) (drill 0.3) (layers *.Cu *.Mask))
  (pad 17 thru_hole circle (at 16 -8) (size 0.6 0.6) (drill 0.3) (layers *.Cu *.Mask))
  (pad 18 thru_hole circle (at 17 -8) (size 0.6 0.6) (drill 0.3) (layers *.Cu *.Mask))
  (pad 2 thru_hole circle (at 18 -8) (size 0.6 0.6) (drill 0.3) (layers *.Cu *.Mask))
  (pad 2 thru_hole circle (at 18 -9) (size 0.6 0.6) (drill 0.3) (layers *.Cu *.Mask))
  (pad 3 thru_hole circle (at 18 -10) (size 0.6 0.6) (drill 0.3) (layers *.Cu *.Mask))
  (pad 4 thru_hole circle (at 18 -11) (size 0.6 0.6) (drill 0.3) (layers *.Cu *.Mask))
  (pad 5 thru_hole circle (at 18 -12) (size 0.6 0.6) (drill 0.3) (layers *.Cu *.Mask))
  (pad 2 thru_hole circle (at 18 -13) (size 0.6 0.6) (drill 0.3) (layers *.Cu *.Mask))
  (pad 2 thru_hole circle (at 17 -13) (size 0.6 0.6) (drill 0.3) (layers *.Cu *.Mask))
  (pad 3 thru_hole circle (at 16 -13) (size 0.6 0.6) (drill 0.3) (layers *.Cu *.Mask))
  (pad 4 thru_hole circle (at 15 -13) (size 0.6 0.6) (drill 0.3) (layers *.Cu *.Mask))
  (pad 5 thru_hole circle (at 14 -13) (size 0.6 0.6) (drill 0.3) (layers *.Cu *.Mask))
  (pad 6 thru_hole circle (at 13 -13) (size 0.6 0.6) (drill 0.3) (layers *.Cu *.Mask))
  (pad 7 thru_hole circle (at 12 -13) (size 0.6 0.6) (drill 0.3) (layers *.Cu *.Mask))
  (pad 8 thru_hole circle (at 11 -13) (size 0.6 0.6) (drill 0.3) (layers *.Cu *.Mask))
  (pad 9 thru_hole circle (at 10 -13) (size 0.6 0.6) (drill 0.3) (layers *.Cu *.Mask))
  (pad 10 thru_hole circle (at 9 -13) (size 0.6 0.6) (drill 0.3) (layers *.Cu *.Mask))
  (pad 11 thru_hole circle (at 8 -13) (size 0.6 0.6) (drill 0.3) (layers *.Cu *.Mask))
  (pad 12 thru_hole circle (at 7 -13) (size 0.6 0.6) (drill 0.3) (layers *.Cu *.Mask))
  (pad 13 thru_hole circle (at 6 -13) (size 0.6 0.6) (drill 0.3) (layers *.Cu *.Mask))
  (pad 14 thru_hole circle (at 5 -13) (size 0.6 0.6) (drill 0.3) (layers *.Cu *.Mask))
  (pad 15 thru_hole circle (at 4 -13) (size 0.6 0.6) (drill 0.3) (layers *.Cu *.Mask))
  (pad 16 thru_hole circle (at 3 -13) (size 0.6 0.6) (drill 0.3) (layers *.Cu *.Mask))
  (pad 17 thru_hole circle (at 2 -13) (size 0.6 0.6) (drill 0.3) (layers *.Cu *.Mask))
  (pad 18 thru_hole circle (at 1 -13) (size 0.6 0.6) (drill 0.3) (layers *.Cu *.Mask))
  (pad 19 thru_hole circle (at 0 -13) (size 0.6 0.6) (drill 0.3) (layers *.Cu *.Mask))
  (pad 20 thru_hole circle (at -1 -13) (size 0.6 0.6) (drill 0.3) (layers *.Cu *.Mask))
  (pad 21 thru_hole circle (at -2 -13) (size 0.6 0.6) (drill 0.3) (layers *.Cu *.Mask))
  (pad 22 thru_hole circle (at -3 -13) (size 0.6 0.6) (drill 0.3) (layers *.Cu *.Mask))
  (pad 23 thru_hole circle (at -4 -13) (size 0.6 0.6) (drill 0.3) (layers *.Cu *.Mask))
  (pad 24 thru_hole circle (at -5 -13) (size 0.6 0.6) (drill 0.3) (layers *.Cu *.Mask))
  (pad 25 thru_hole circle (at -6 -13) (size 0.6 0.6) (drill 0.3) (layers *.Cu *.Mask))
  (pad 26 thru_hole circle (at -7 -13) (size 0.6 0.6) (drill 0.3) (layers *.Cu *.Mask))
  (pad 27 thru_hole circle (at -8 -13) (size 0.6 0.6) (drill 0.3) (layers *.Cu *.Mask))
  (pad 28 thru_hole circle (at -9 -13) (size 0.6 0.6) (drill 0.3) (layers *.Cu *.Mask))
  (pad 29 thru_hole circle (at -10 -13) (size 0.6 0.6) (drill 0.3) (layers *.Cu *.Mask))
  (pad 30 thru_hole circle (at -11 -13) (size 0.6 0.6) (drill 0.3) (layers *.Cu *.Mask))
  (pad 31 thru_hole circle (at -12 -13) (size 0.6 0.6) (drill 0.3) (layers *.Cu *.Mask))
  (pad 32 thru_hole circle (at -13 -13) (size 0.6 0.6) (drill 0.3) (layers *.Cu *.Mask))
  (pad 33 thru_hole circle (at -14 -13) (size 0.6 0.6) (drill 0.3) (layers *.Cu *.Mask))
  (pad 34 thru_hole circle (at -15 -13) (size 0.6 0.6) (drill 0.3) (layers *.Cu *.Mask))
  (pad 35 thru_hole circle (at -16 -13) (size 0.6 0.6) (drill 0.3) (layers *.Cu *.Mask))
  (pad 36 thru_hole circle (at -17 -13) (size 0.6 0.6) (drill 0.3) (layers *.Cu *.Mask))
  (pad 2 thru_hole circle (at -18 -13) (size 0.6 0.6) (drill 0.3) (layers *.Cu *.Mask))
  (pad 2 thru_hole circle (at -18 -14) (size 0.6 0.6) (drill 0.3) (layers *.Cu *.Mask))
  (pad 3 thru_hole circle (at -18 -15) (size 0.6 0.6) (drill 0.3) (layers *.Cu *.Mask))
  (pad 4 thru_hole circle (at -18 -16) (size 0.6 0.6) (drill 0.3) (layers *.Cu *.Mask))
  (pad 5 thru_hole circle (at -18 -17) (size 0.6 0.6) (drill 0.3) (layers *.Cu *.Mask))
  (pad 2 thru_hole circle (at -18 -18) (size 0.6 0.6) (drill 0.3) (layers *.Cu *.Mask))
  (pad 2 thru_hole circle (at -17 -18) (size 0.6 0.6) (drill 0.3) (layers *.Cu *.Mask))
  (pad 3 thru_hole circle (at -16 -18) (size 0.6 0.6) (drill 0.3) (layers *.Cu *.Mask))
  (pad 4 thru_hole circle (at -15 -18) (size 0.6 0.6) (drill 0.3) (layers *.Cu *.Mask))
  (pad 5 thru_hole circle (at -14 -18) (size 0.6 0.6) (drill 0.3) (layers *.Cu *.Mask))
  (pad 6 thru_hole circle (at -13 -18) (size 0.6 0.6) (drill 0.3) (layers *.Cu *.Mask))
  (pad 7 thru_hole circle (at -12 -18) (size 0.6 0.6) (drill 0.3) (layers *.Cu *.Mask))
  (pad 8 thru_hole circle (at -11 -18) (size 0.6 0.6) (drill 0.3) (layers *.Cu *.Mask))
  (pad 9 thru_hole circle (at -10 -18) (size 0.6 0.6) (drill 0.3) (layers *.Cu *.Mask))
  (pad 10 thru_hole circle (at -9 -18) (size 0.6 0.6) (drill 0.3) (layers *.Cu *.Mask))
  (pad 11 thru_hole circle (at -8 -18) (size 0.6 0.6) (drill 0.3) (layers *.Cu *.Mask))
  (pad 12 thru_hole circle (at -7 -18) (size 0.6 0.6) (drill 0.3) (layers *.Cu *.Mask))
  (pad 13 thru_hole circle (at -6 -18) (size 0.6 0.6) (drill 0.3) (layers *.Cu *.Mask))
  (pad 14 thru_hole circle (at -5 -18) (size 0.6 0.6) (drill 0.3) (layers *.Cu *.Mask))
  (pad 15 thru_hole circle (at -4 -18) (size 0.6 0.6) (drill 0.3) (layers *.Cu *.Mask))
  (pad 16 thru_hole circle (at -3 -18) (size 0.6 0.6) (drill 0.3) (layers *.Cu *.Mask))
  (pad 17 thru_hole circle (at -2 -18) (size 0.6 0.6) (drill 0.3) (layers *.Cu *.Mask))
  (pad 18 thru_hole circle (at -1 -18) (size 0.6 0.6) (drill 0.3) (layers *.Cu *.Mask))
  (pad 19 thru_hole circle (at 0 -18) (size 0.6 0.6) (drill 0.3) (layers *.Cu *.Mask))
  (pad 20 thru_hole circle (at 1 -18) (size 0.6 0.6) (drill 0.3) (layers *.Cu *.Mask))
  (pad 21 thru_hole circle (at 2 -18) (size 0.6 0.6) (drill 0.3) (layers *.Cu *.Mask))
  (pad 22 thru_hole circle (at 3 -18) (size 0.6 0.6) (drill 0.3) (layers *.Cu *.Mask))
  (pad 23 thru_hole circle (at 4 -18) (size 0.6 0.6) (drill 0.3) (layers *.Cu *.Mask))
  (pad 24 thru_hole circle (at 5 -18) (size 0.6 0.6) (drill 0.3) (layers *.Cu *.Mask))
  (pad 25 thru_hole circle (at 6 -18) (size 0.6 0.6) (drill 0.3) (layers *.Cu *.Mask))
  (pad 26 thru_hole circle (at 7 -18) (size 0.6 0.6) (drill 0.3) (layers *.Cu *.Mask))
  (pad 27 thru_hole circle (at 8 -18) (size 0.6 0.6) (drill 0.3) (layers *.Cu *.Mask))
  (pad 28 thru_hole circle (at 9 -18) (size 0.6 0.6) (drill 0.3) (layers *.Cu *.Mask))
  (pad 29 thru_hole circle (at 10 -18) (size 0.6 0.6) (drill 0.3) (layers *.Cu *.Mask))
  (pad 30 thru_hole circle (at 11 -18) (size 0.6 0.6) (drill 0.3) (layers *.Cu *.Mask))
  (pad 31 thru_hole circle (at 12 -18) (size 0.6 0.6) (drill 0.3) (layers *.Cu *.Mask))
  (pad 32 thru_hole circle (at 13 -18) (size 0.6 0.6) (drill 0.3) (layers *.Cu *.Mask))
  (pad 33 thru_hole circle (at 14 -18) (size 0.6 0.6) (drill 0.3) (layers *.Cu *.Mask))
  (pad 34 thru_hole circle (at 15 -18) (size 0.6 0.6) (drill 0.3) (layers *.Cu *.Mask))
  (pad 35 thru_hole circle (at 16 -18) (size 0.6 0.6) (drill 0.3) (layers *.Cu *.Mask))
  (pad 36 thru_hole circle (at 17 -18) (size 0.6 0.6) (drill 0.3) (layers *.Cu *.Mask))
  (pad 2 thru_hole circle (at 18 -18) (size 0.6 0.6) (drill 0.3) (layers *.Cu *.Mask))
  (pad 2 thru_hole circle (at 18 -19) (size 0.6 0.6) (drill 0.3) (layers *.Cu *.Mask))
  (pad 3 thru_hole circle (at 18 -20) (size 0.6 0.6) (drill 0.3) (layers *.Cu *.Mask))
  (pad 4 thru_hole circle (at 18 -21) (size 0.6 0.6) (drill 0.3) (layers *.Cu *.Mask))
  (pad 5 thru_hole circle (at 18 -22) (size 0.6 0.6) (drill 0.3) (layers *.Cu *.Mask))
  (pad 2 thru_hole circle (at 18 -23) (size 0.6 0.6) (drill 0.3) (layers *.Cu *.Mask))
  (pad 2 thru_hole circle (at 17 -23) (size 0.6 0.6) (drill 0.3) (layers *.Cu *.Mask))
  (pad 3 thru_hole circle (at 16 -23) (size 0.6 0.6) (drill 0.3) (layers *.Cu *.Mask))
  (pad 4 thru_hole circle (at 15 -23) (size 0.6 0.6) (drill 0.3) (layers *.Cu *.Mask))
  (pad 5 thru_hole circle (at 14 -23) (size 0.6 0.6) (drill 0.3) (layers *.Cu *.Mask))
  (pad 6 thru_hole circle (at 13 -23) (size 0.6 0.6) (drill 0.3) (layers *.Cu *.Mask))
  (pad 7 thru_hole circle (at 12 -23) (size 0.6 0.6) (drill 0.3) (layers *.Cu *.Mask))
  (pad 8 thru_hole circle (at 11 -23) (size 0.6 0.6) (drill 0.3) (layers *.Cu *.Mask))
  (pad 9 thru_hole circle (at 10 -23) (size 0.6 0.6) (drill 0.3) (layers *.Cu *.Mask))
  (pad 10 thru_hole circle (at 9 -23) (size 0.6 0.6) (drill 0.3) (layers *.Cu *.Mask))
  (pad 11 thru_hole circle (at 8 -23) (size 0.6 0.6) (drill 0.3) (layers *.Cu *.Mask))
  (pad 12 thru_hole circle (at 7 -23) (size 0.6 0.6) (drill 0.3) (layers *.Cu *.Mask))
  (pad 13 thru_hole circle (at 6 -23) (size 0.6 0.6) (drill 0.3) (layers *.Cu *.Mask))
  (pad 14 thru_hole circle (at 5 -23) (size 0.6 0.6) (drill 0.3) (layers *.Cu *.Mask))
  (pad 15 thru_hole circle (at 4 -23) (size 0.6 0.6) (drill 0.3) (layers *.Cu *.Mask))
  (pad 16 thru_hole circle (at 3 -23) (size 0.6 0.6) (drill 0.3) (layers *.Cu *.Mask))
  (pad 17 thru_hole circle (at 2 -23) (size 0.6 0.6) (drill 0.3) (layers *.Cu *.Mask))
  (pad 18 thru_hole circle (at 1 -23) (size 0.6 0.6) (drill 0.3) (layers *.Cu *.Mask))
  (pad 19 thru_hole circle (at 0 -23) (size 0.6 0.6) (drill 0.3) (layers *.Cu *.Mask))
  (pad 20 thru_hole circle (at -1 -23) (size 0.6 0.6) (drill 0.3) (layers *.Cu *.Mask))
  (pad 21 thru_hole circle (at -2 -23) (size 0.6 0.6) (drill 0.3) (layers *.Cu *.Mask))
  (pad 22 thru_hole circle (at -3 -23) (size 0.6 0.6) (drill 0.3) (layers *.Cu *.Mask))
  (pad 23 thru_hole circle (at -4 -23) (size 0.6 0.6) (drill 0.3) (layers *.Cu *.Mask))
  (pad 24 thru_hole circle (at -5 -23) (size 0.6 0.6) (drill 0.3) (layers *.Cu *.Mask))
  (pad 25 thru_hole circle (at -6 -23) (size 0.6 0.6) (drill 0.3) (layers *.Cu *.Mask))
  (pad 26 thru_hole circle (at -7 -23) (size 0.6 0.6) (drill 0.3) (layers *.Cu *.Mask))
  (pad 27 thru_hole circle (at -8 -23) (size 0.6 0.6) (drill 0.3) (layers *.Cu *.Mask))
  (pad 28 thru_hole circle (at -9 -23) (size 0.6 0.6) (drill 0.3) (layers *.Cu *.Mask))
  (pad 29 thru_hole circle (at -10 -23) (size 0.6 0.6) (drill 0.3) (layers *.Cu *.Mask))
  (pad 30 thru_hole circle (at -11 -23) (size 0.6 0.6) (drill 0.3) (layers *.Cu *.Mask))
  (pad 31 thru_hole circle (at -12 -23) (size 0.6 0.6) (drill 0.3) (layers *.Cu *.Mask))
  (pad 32 thru_hole circle (at -13 -23) (size 0.6 0.6) (drill 0.3) (layers *.Cu *.Mask))
  (pad 33 thru_hole circle (at -14 -23) (size 0.6 0.6) (drill 0.3) (layers *.Cu *.Mask))
  (pad 34 thru_hole circle (at -15 -23) (size 0.6 0.6) (drill 0.3) (layers *.Cu *.Mask))
  (pad 35 thru_hole circle (at -16 -23) (size 0.6 0.6) (drill 0.3) (layers *.Cu *.Mask))
  (pad 36 thru_hole circle (at -17 -23) (size 0.6 0.6) (drill 0.3) (layers *.Cu *.Mask))
  (pad 37 thru_hole circle (at -18 -23) (size 0.6 0.6) (drill 0.3) (layers *.Cu *.Mask))
)
