(module LOGO (layer F.Cu)
  (at 0 0)
 (fp_text reference "G***" (at 0 0) (layer F.SilkS) hide
  (effects (font (thickness 0.3)))
  )
  (fp_text value "LOGO" (at 0.75 0) (layer F.SilkS) hide
  (effects (font (thickness 0.3)))
  )
  (fp_poly (pts (xy -3.251861 2.682510) (xy -3.221195 2.699409) (xy -3.178566 2.723506) (xy -3.143490 2.743624) (xy -2.905893 2.866057) (xy -2.656658 2.966222) (xy -2.396855 3.043842) (xy -2.127549 3.098645)
     (xy -1.849809 3.130355) (xy -1.606550 3.138947) (xy -1.329092 3.127582) (xy -1.058576 3.093773) (xy -0.796712 3.037946) (xy -0.545207 2.960530) (xy -0.305768 2.861950) (xy -0.123926 2.768064)
     (xy -0.076219 2.741566) (xy -0.036728 2.720671) (xy -0.010633 2.708062) (xy -0.003276 2.705582) (xy 0.007367 2.715424) (xy 0.029931 2.742100) (xy 0.061420 2.781888) (xy 0.098834 2.831066)
     (xy 0.111306 2.847822) (xy 0.154073 2.906593) (xy 0.182623 2.948658) (xy 0.198685 2.977084) (xy 0.203989 2.994935) (xy 0.200265 3.005277) (xy 0.200206 3.005336) (xy 0.180142 3.019405)
     (xy 0.141458 3.041904) (xy 0.088577 3.070582) (xy 0.025924 3.103188) (xy -0.042076 3.137472) (xy -0.110998 3.171181) (xy -0.176419 3.202066) (xy -0.233914 3.227876) (xy -0.254000 3.236399)
     (xy -0.519164 3.333588) (xy -0.796214 3.410696) (xy -1.079943 3.466425) (xy -1.280871 3.492133) (xy -1.334442 3.495985) (xy -1.406063 3.499042) (xy -1.489996 3.501266) (xy -1.580501 3.502615)
     (xy -1.671840 3.503050) (xy -1.758273 3.502532) (xy -1.834063 3.501020) (xy -1.893470 3.498475) (xy -1.917700 3.496557) (xy -2.215288 3.455465) (xy -2.498250 3.394729) (xy -2.768794 3.313729)
     (xy -3.029128 3.211841) (xy -3.181350 3.140421) (xy -3.241669 3.109622) (xy -3.303534 3.076846) (xy -3.362838 3.044410) (xy -3.415475 3.014632) (xy -3.457339 2.989829) (xy -3.484323 2.972319)
     (xy -3.492500 2.964803) (xy -3.485168 2.952288) (xy -3.465438 2.924753) (xy -3.436714 2.886534) (xy -3.402397 2.841967) (xy -3.365892 2.795390) (xy -3.330601 2.751138) (xy -3.299925 2.713548)
     (xy -3.277269 2.686956) (xy -3.266034 2.675699) (xy -3.265567 2.675594) (xy -3.251861 2.682510) )(layer F.SilkS) (width  0.010000)
  )
  (fp_poly (pts (xy -2.871661 2.183526) (xy -2.839085 2.198361) (xy -2.791841 2.220744) (xy -2.733957 2.248774) (xy -2.692400 2.269191) (xy -2.580873 2.322417) (xy -2.482475 2.364811) (xy -2.389088 2.399454)
     (xy -2.292592 2.429428) (xy -2.216150 2.449972) (xy -1.981851 2.497228) (xy -1.743095 2.521278) (xy -1.502707 2.522465) (xy -1.263515 2.501131) (xy -1.028347 2.457618) (xy -0.800028 2.392267)
     (xy -0.581385 2.305421) (xy -0.441599 2.235314) (xy -0.368847 2.195488) (xy -0.289199 2.305018) (xy -0.256442 2.351359) (xy -0.230222 2.390916) (xy -0.213693 2.418778) (xy -0.209550 2.429094)
     (xy -0.220698 2.443566) (xy -0.251787 2.465830) (xy -0.299283 2.493972) (xy -0.359654 2.526080) (xy -0.429367 2.560242) (xy -0.504889 2.594545) (xy -0.552936 2.614985) (xy -0.779951 2.697091)
     (xy -1.021258 2.761854) (xy -1.123950 2.783186) (xy -1.201509 2.794626) (xy -1.298264 2.803761) (xy -1.408106 2.810463) (xy -1.524926 2.814602) (xy -1.642613 2.816049) (xy -1.755059 2.814673)
     (xy -1.856153 2.810346) (xy -1.939786 2.802939) (xy -1.955800 2.800802) (xy -2.209678 2.752812) (xy -2.457594 2.683587) (xy -2.695200 2.594537) (xy -2.908300 2.492383) (xy -2.970479 2.459423)
     (xy -3.012738 2.435535) (xy -3.036622 2.416212) (xy -3.043675 2.396946) (xy -3.035443 2.373230) (xy -3.013471 2.340555) (xy -2.979304 2.294414) (xy -2.977159 2.291474) (xy -2.943132 2.245823)
     (xy -2.914197 2.208970) (xy -2.893734 2.185099) (xy -2.885541 2.178138) (xy -2.871661 2.183526) )(layer F.SilkS) (width  0.010000)
  )
  (fp_poly (pts (xy -2.513348 1.686804) (xy -2.482300 1.698313) (xy -2.439690 1.717932) (xy -2.411981 1.732073) (xy -2.250192 1.805629) (xy -2.071514 1.865036) (xy -1.951843 1.894529) (xy -1.856410 1.909878)
     (xy -1.744065 1.919654) (xy -1.622693 1.923799) (xy -1.500174 1.922256) (xy -1.384393 1.914970) (xy -1.283232 1.901882) (xy -1.270000 1.899452) (xy -1.111769 1.861734) (xy -0.954432 1.810644)
     (xy -0.829761 1.759195) (xy -0.785423 1.739175) (xy -0.751157 1.724585) (xy -0.732401 1.717704) (xy -0.730480 1.717571) (xy -0.722376 1.728513) (xy -0.702791 1.754550) (xy -0.675595 1.790541)
     (xy -0.668993 1.799260) (xy -0.640721 1.838107) (xy -0.619751 1.869818) (xy -0.609900 1.888550) (xy -0.609600 1.890206) (xy -0.620716 1.901945) (xy -0.651121 1.920734) (xy -0.696401 1.944496)
     (xy -0.752140 1.971155) (xy -0.813926 1.998632) (xy -0.877342 2.024851) (xy -0.937976 2.047736) (xy -0.961882 2.055963) (xy -1.077246 2.091402) (xy -1.184203 2.117408) (xy -1.290943 2.135328)
     (xy -1.405659 2.146508) (xy -1.536541 2.152298) (xy -1.549400 2.152600) (xy -1.629149 2.153583) (xy -1.706690 2.153139) (xy -1.775685 2.151404) (xy -1.829798 2.148515) (xy -1.854200 2.146052)
     (xy -2.030166 2.113369) (xy -2.207506 2.064990) (xy -2.378567 2.003450) (xy -2.535698 1.931286) (xy -2.587945 1.902873) (xy -2.654939 1.864670) (xy -2.595540 1.780060) (xy -2.566812 1.739414)
     (xy -2.543335 1.706702) (xy -2.529202 1.687612) (xy -2.527526 1.685540) (xy -2.513348 1.686804) )(layer F.SilkS) (width  0.010000)
  )
  (fp_poly (pts (xy -1.540573 -0.753737) (xy -1.469702 -0.752823) (xy -1.414448 -0.750796) (xy -1.369919 -0.747245) (xy -1.331224 -0.741760) (xy -1.293473 -0.733929) (xy -1.251775 -0.723341) (xy -1.244455 -0.721376)
     (xy -1.081765 -0.666550) (xy -0.933512 -0.594287) (xy -0.801433 -0.505911) (xy -0.687263 -0.402749) (xy -0.592738 -0.286129) (xy -0.527012 -0.173067) (xy -0.468781 -0.026152) (xy -0.430126 0.131203)
     (xy -0.410951 0.294697) (xy -0.411162 0.460030) (xy -0.430665 0.622899) (xy -0.469365 0.779005) (xy -0.527169 0.924046) (xy -0.552131 0.971821) (xy -0.623166 1.076933) (xy -0.714571 1.177651)
     (xy -0.821317 1.269487) (xy -0.938374 1.347948) (xy -1.022869 1.392100) (xy -1.116370 1.431636) (xy -1.206819 1.461348) (xy -1.300411 1.482471) (xy -1.403339 1.496239) (xy -1.521799 1.503888)
     (xy -1.593850 1.505898) (xy -1.707152 1.506693) (xy -1.798216 1.504438) (xy -1.870033 1.499005) (xy -1.915665 1.492282) (xy -2.082930 1.449471) (xy -2.238063 1.387787) (xy -2.379150 1.308590)
     (xy -2.504273 1.213241) (xy -2.611517 1.103100) (xy -2.698965 0.979527) (xy -2.736447 0.909438) (xy -2.772750 0.827319) (xy -2.799734 0.749426) (xy -2.818567 0.669680) (xy -2.830415 0.582001)
     (xy -2.836445 0.480312) (xy -2.837866 0.381000) (xy -2.837802 0.368300) (xy -2.171259 0.368300) (xy -2.163037 0.509893) (xy -2.138004 0.633722) (xy -2.095610 0.741532) (xy -2.035307 0.835070)
     (xy -2.017911 0.855814) (xy -1.949266 0.920902) (xy -1.872503 0.967580) (xy -1.784049 0.997154) (xy -1.680329 1.010929) (xy -1.591015 1.011697) (xy -1.529227 1.008999) (xy -1.484135 1.004309)
     (xy -1.447032 0.995644) (xy -1.409215 0.981024) (xy -1.366064 0.960489) (xy -1.282461 0.908545) (xy -1.214657 0.842313) (xy -1.161778 0.760095) (xy -1.122952 0.660191) (xy -1.097306 0.540901)
     (xy -1.084611 0.412750) (xy -1.085896 0.269375) (xy -1.105912 0.139899) (xy -1.143626 0.025458) (xy -1.198004 -0.072813) (xy -1.268012 -0.153777) (xy -1.352616 -0.216298) (xy -1.450782 -0.259239)
     (xy -1.561477 -0.281464) (xy -1.683666 -0.281837) (xy -1.713703 -0.278660) (xy -1.823624 -0.253311) (xy -1.919723 -0.207179) (xy -2.001330 -0.141214) (xy -2.067774 -0.056363) (xy -2.118384 0.046425)
     (xy -2.152491 0.166202) (xy -2.169422 0.302019) (xy -2.171259 0.368300) (xy -2.837802 0.368300) (xy -2.837424 0.293688) (xy -2.835680 0.225844) (xy -2.832129 0.171550) (xy -2.826268 0.124884)
     (xy -2.817592 0.079928) (xy -2.809235 0.044963) (xy -2.757835 -0.108965) (xy -2.685274 -0.249638) (xy -2.592705 -0.375926) (xy -2.481286 -0.486703) (xy -2.352172 -0.580838) (xy -2.206519 -0.657204)
     (xy -2.045482 -0.714672) (xy -2.025650 -0.720119) (xy -1.981018 -0.731584) (xy -1.941921 -0.740128) (xy -1.903402 -0.746177) (xy -1.860505 -0.750157) (xy -1.808272 -0.752494) (xy -1.741745 -0.753614)
     (xy -1.655968 -0.753942) (xy -1.631950 -0.753951) (xy -1.540573 -0.753737) )(layer F.SilkS) (width  0.010000)
  )
  (fp_poly (pts (xy 4.146550 -0.757662) (xy 4.328940 -0.747911) (xy 4.488728 -0.728900) (xy 4.627170 -0.700077) (xy 4.745523 -0.660889) (xy 4.845045 -0.610782) (xy 4.926994 -0.549205) (xy 4.992626 -0.475604)
     (xy 5.043201 -0.389427) (xy 5.057079 -0.357440) (xy 5.062971 -0.342286) (xy 5.068018 -0.327146) (xy 5.072307 -0.309976) (xy 5.075924 -0.288731) (xy 5.078957 -0.261367) (xy 5.081492 -0.225840)
     (xy 5.083616 -0.180106) (xy 5.085416 -0.122120) (xy 5.086979 -0.049840) (xy 5.088391 0.038781) (xy 5.089739 0.145785) (xy 5.091110 0.273218) (xy 5.092590 0.423122) (xy 5.093285 0.495300)
     (xy 5.094925 0.658886) (xy 5.096509 0.799083) (xy 5.098105 0.917899) (xy 5.099782 1.017347) (xy 5.101606 1.099434) (xy 5.103647 1.166172) (xy 5.105971 1.219570) (xy 5.108648 1.261638)
     (xy 5.111743 1.294386) (xy 5.115327 1.319824) (xy 5.119465 1.339963) (xy 5.122143 1.349994) (xy 5.133457 1.389887) (xy 5.141200 1.418861) (xy 5.143500 1.429369) (xy 5.131373 1.430953)
     (xy 5.097288 1.432369) (xy 5.044684 1.433554) (xy 4.977004 1.434444) (xy 4.897687 1.434975) (xy 4.833402 1.435100) (xy 4.523304 1.435100) (xy 4.509552 1.370974) (xy 4.501472 1.327729)
     (xy 4.496527 1.290522) (xy 4.495800 1.277841) (xy 4.492879 1.251320) (xy 4.482291 1.242696) (xy 4.461297 1.252399) (xy 4.427157 1.280860) (xy 4.417011 1.290242) (xy 4.340406 1.347674)
     (xy 4.244269 1.397267) (xy 4.133572 1.437880) (xy 4.013283 1.468371) (xy 3.888374 1.487598) (xy 3.763814 1.494421) (xy 3.644573 1.487697) (xy 3.592346 1.479640) (xy 3.452281 1.443194)
     (xy 3.330427 1.390848) (xy 3.227510 1.323183) (xy 3.144252 1.240782) (xy 3.081378 1.144227) (xy 3.039863 1.035050) (xy 3.030479 0.981673) (xy 3.025022 0.912429) (xy 3.023587 0.836560)
     (xy 3.023860 0.829091) (xy 3.662886 0.829091) (xy 3.663289 0.831871) (xy 3.685781 0.904487) (xy 3.728653 0.962467) (xy 3.790797 1.004720) (xy 3.862748 1.028495) (xy 3.920466 1.034818)
     (xy 3.991545 1.034378) (xy 4.065084 1.027914) (xy 4.130176 1.016165) (xy 4.155946 1.008611) (xy 4.242575 0.965921) (xy 4.313921 0.903545) (xy 4.348209 0.859171) (xy 4.386980 0.791316)
     (xy 4.412850 0.718751) (xy 4.427418 0.635152) (xy 4.432281 0.534196) (xy 4.432300 0.526583) (xy 4.432300 0.397376) (xy 4.168775 0.469675) (xy 4.062720 0.499204) (xy 3.977954 0.524029)
     (xy 3.911097 0.545487) (xy 3.858766 0.564917) (xy 3.817579 0.583655) (xy 3.784155 0.603038) (xy 3.755112 0.624403) (xy 3.736128 0.640756) (xy 3.687805 0.697403) (xy 3.663731 0.759288)
     (xy 3.662886 0.829091) (xy 3.023860 0.829091) (xy 3.026271 0.763308) (xy 3.033167 0.701915) (xy 3.036267 0.686336) (xy 3.062690 0.607492) (xy 3.104375 0.525162) (xy 3.155710 0.450341)
     (xy 3.158364 0.447074) (xy 3.234434 0.370974) (xy 3.331996 0.302389) (xy 3.451534 0.241145) (xy 3.593532 0.187068) (xy 3.758475 0.139982) (xy 3.946846 0.099714) (xy 4.159130 0.066089)
     (xy 4.245845 0.055055) (xy 4.432300 0.032773) (xy 4.432252 -0.094739) (xy 4.429730 -0.171675) (xy 4.420760 -0.228590) (xy 4.403137 -0.270505) (xy 4.374656 -0.302442) (xy 4.333112 -0.329422)
     (xy 4.328023 -0.332110) (xy 4.280526 -0.348769) (xy 4.216084 -0.360616) (xy 4.142785 -0.367145) (xy 4.068716 -0.367848) (xy 4.001964 -0.362218) (xy 3.965916 -0.354807) (xy 3.898951 -0.323210)
     (xy 3.841800 -0.270025) (xy 3.797158 -0.198045) (xy 3.783972 -0.166174) (xy 3.755796 -0.088900) (xy 3.111500 -0.088900) (xy 3.111500 -0.137032) (xy 3.123345 -0.237589) (xy 3.156845 -0.338832)
     (xy 3.208947 -0.435555) (xy 3.276599 -0.522555) (xy 3.356749 -0.594627) (xy 3.394777 -0.620022) (xy 3.488234 -0.668524) (xy 3.590368 -0.706049) (xy 3.704258 -0.733160) (xy 3.832980 -0.750421)
     (xy 3.979612 -0.758394) (xy 4.146550 -0.757662) )(layer F.SilkS) (width  0.010000)
  )
  (fp_poly (pts (xy -4.292600 0.838200) (xy -3.098800 0.838200) (xy -3.098800 1.435100) (xy -5.067300 1.435100) (xy -5.067300 -1.435100) (xy -4.292600 -1.435100) (xy -4.292600 0.838200) )(layer F.SilkS) (width  0.010000)
  )
  (fp_poly (pts (xy 0.911225 -1.435026) (xy 1.094484 -1.434926) (xy 1.254396 -1.434588) (xy 1.393014 -1.433902) (xy 1.512389 -1.432756) (xy 1.614575 -1.431041) (xy 1.701625 -1.428646) (xy 1.775590 -1.425462)
     (xy 1.838523 -1.421377) (xy 1.892478 -1.416281) (xy 1.939505 -1.410064) (xy 1.981659 -1.402616) (xy 2.020992 -1.393826) (xy 2.059555 -1.383584) (xy 2.099402 -1.371780) (xy 2.101850 -1.371029)
     (xy 2.228456 -1.323196) (xy 2.338492 -1.261364) (xy 2.438743 -1.181522) (xy 2.465111 -1.156260) (xy 2.550709 -1.057337) (xy 2.615518 -0.949499) (xy 2.662482 -0.827483) (xy 2.675188 -0.780700)
     (xy 2.685843 -0.721070) (xy 2.693292 -0.645994) (xy 2.697453 -0.562384) (xy 2.698245 -0.477150) (xy 2.695586 -0.397203) (xy 2.689393 -0.329453) (xy 2.681051 -0.285750) (xy 2.634524 -0.164751)
     (xy 2.565996 -0.051700) (xy 2.478361 0.050498) (xy 2.374511 0.138936) (xy 2.257340 0.210708) (xy 2.137060 0.260570) (xy 2.099018 0.274427) (xy 2.081380 0.285939) (xy 2.079795 0.298452)
     (xy 2.081849 0.302993) (xy 2.090475 0.317713) (xy 2.110956 0.351985) (xy 2.141983 0.403638) (xy 2.182248 0.470501) (xy 2.230442 0.550404) (xy 2.285257 0.641175) (xy 2.345384 0.740643)
     (xy 2.409514 0.846638) (xy 2.419641 0.863367) (xy 2.484098 0.969957) (xy 2.544581 1.070196) (xy 2.599803 1.161941) (xy 2.648481 1.243046) (xy 2.689331 1.311367) (xy 2.721066 1.364758)
     (xy 2.742403 1.401075) (xy 2.752057 1.418172) (xy 2.752436 1.418992) (xy 2.749435 1.423480) (xy 2.735234 1.427101) (xy 2.707736 1.429933) (xy 2.664843 1.432056) (xy 2.604458 1.433549)
     (xy 2.524483 1.434493) (xy 2.422819 1.434967) (xy 2.328633 1.435061) (xy 1.898650 1.435022) (xy 1.598186 0.923886) (xy 1.297723 0.412750) (xy 1.055261 0.409300) (xy 0.812800 0.405851)
     (xy 0.812800 1.435100) (xy 0.050800 1.435100) (xy 0.050800 -0.127000) (xy 0.825500 -0.127000) (xy 1.191467 -0.127000) (xy 1.296652 -0.127499) (xy 1.394261 -0.128917) (xy 1.480619 -0.131139)
     (xy 1.552051 -0.134051) (xy 1.604880 -0.137535) (xy 1.632389 -0.140857) (xy 1.728966 -0.169060) (xy 1.806786 -0.214323) (xy 1.865638 -0.276352) (xy 1.905309 -0.354851) (xy 1.925588 -0.449523)
     (xy 1.926860 -0.551793) (xy 1.912584 -0.651669) (xy 1.883483 -0.732322) (xy 1.838127 -0.796109) (xy 1.775086 -0.845386) (xy 1.736817 -0.865172) (xy 1.717955 -0.873381) (xy 1.699590 -0.879981)
     (xy 1.678762 -0.885177) (xy 1.652512 -0.889177) (xy 1.617882 -0.892186) (xy 1.571914 -0.894411) (xy 1.511647 -0.896059) (xy 1.434124 -0.897337) (xy 1.336385 -0.898449) (xy 1.247775 -0.899303)
     (xy 0.825500 -0.903255) (xy 0.825500 -0.127000) (xy 0.050800 -0.127000) (xy 0.050800 -1.435100) (xy 0.911225 -1.435026) )(layer F.SilkS) (width  0.010000)
  )
  (fp_poly (pts (xy -1.439913 -1.406823) (xy -1.223638 -1.371079) (xy -1.174301 -1.359317) (xy -1.091246 -1.336196) (xy -1.005564 -1.308545) (xy -0.920652 -1.277856) (xy -0.839907 -1.245624) (xy -0.766725 -1.213340)
     (xy -0.704503 -1.182500) (xy -0.656637 -1.154594) (xy -0.626523 -1.131118) (xy -0.617431 -1.114503) (xy -0.625657 -1.094248) (xy -0.645148 -1.062949) (xy -0.671096 -1.026888) (xy -0.698696 -0.992347)
     (xy -0.723137 -0.965608) (xy -0.739614 -0.952952) (xy -0.741301 -0.952653) (xy -0.759854 -0.958683) (xy -0.791478 -0.973921) (xy -0.812800 -0.985634) (xy -0.896031 -1.027898) (xy -0.996850 -1.070153)
     (xy -1.107612 -1.109476) (xy -1.220673 -1.142945) (xy -1.231900 -1.145880) (xy -1.294743 -1.161186) (xy -1.350620 -1.172210) (xy -1.406886 -1.179866) (xy -1.470899 -1.185065) (xy -1.550015 -1.188718)
     (xy -1.587500 -1.189950) (xy -1.772881 -1.188564) (xy -1.943131 -1.171768) (xy -2.104145 -1.138402) (xy -2.261820 -1.087303) (xy -2.392381 -1.031535) (xy -2.517812 -0.972558) (xy -2.547942 -1.010154)
     (xy -2.573931 -1.043687) (xy -2.604633 -1.084782) (xy -2.617248 -1.102104) (xy -2.656422 -1.156458) (xy -2.512486 -1.224871) (xy -2.307611 -1.308500) (xy -2.095376 -1.368765) (xy -1.878322 -1.405410)
     (xy -1.658988 -1.418182) (xy -1.439913 -1.406823) )(layer F.SilkS) (width  0.010000)
  )
  (fp_poly (pts (xy -1.387734 -2.066979) (xy -1.127411 -2.027166) (xy -0.867747 -1.962328) (xy -0.749300 -1.924276) (xy -0.695698 -1.904264) (xy -0.631819 -1.877932) (xy -0.561580 -1.847170) (xy -0.488896 -1.813868)
     (xy -0.417684 -1.779916) (xy -0.351861 -1.747202) (xy -0.295344 -1.717616) (xy -0.252047 -1.693048) (xy -0.225889 -1.675388) (xy -0.220066 -1.668937) (xy -0.224479 -1.652283) (xy -0.241183 -1.621477)
     (xy -0.266388 -1.581841) (xy -0.296305 -1.538693) (xy -0.327145 -1.497355) (xy -0.355118 -1.463148) (xy -0.376435 -1.441392) (xy -0.385656 -1.436432) (xy -0.401860 -1.442636) (xy -0.435562 -1.458586)
     (xy -0.481941 -1.481913) (xy -0.536172 -1.510244) (xy -0.539750 -1.512148) (xy -0.751898 -1.611997) (xy -0.969971 -1.688418) (xy -1.195826 -1.741858) (xy -1.431321 -1.772760) (xy -1.663700 -1.781656)
     (xy -1.916565 -1.769333) (xy -2.159206 -1.733942) (xy -2.392447 -1.675285) (xy -2.617112 -1.593167) (xy -2.784388 -1.514027) (xy -2.831809 -1.490026) (xy -2.870147 -1.472020) (xy -2.894375 -1.462292)
     (xy -2.900161 -1.461471) (xy -2.921373 -1.487884) (xy -2.948856 -1.525249) (xy -2.979086 -1.568347) (xy -3.008541 -1.611960) (xy -3.033700 -1.650870) (xy -3.051040 -1.679858) (xy -3.057038 -1.693706)
     (xy -3.057005 -1.693836) (xy -3.042986 -1.707356) (xy -3.009571 -1.728679) (xy -2.960781 -1.755767) (xy -2.900638 -1.786587) (xy -2.833163 -1.819101) (xy -2.762378 -1.851276) (xy -2.692305 -1.881074)
     (xy -2.667000 -1.891233) (xy -2.417198 -1.976304) (xy -2.163449 -2.036430) (xy -1.906674 -2.071595) (xy -1.647795 -2.081783) (xy -1.387734 -2.066979) )(layer F.SilkS) (width  0.010000)
  )
  (fp_poly (pts (xy -1.314436 -2.750550) (xy -1.020415 -2.710863) (xy -0.728614 -2.646504) (xy -0.440333 -2.557442) (xy -0.387350 -2.538202) (xy -0.312502 -2.508366) (xy -0.225487 -2.470445) (xy -0.132424 -2.427403)
     (xy -0.039433 -2.382204) (xy 0.047366 -2.337811) (xy 0.121853 -2.297189) (xy 0.171057 -2.267750) (xy 0.240642 -2.223237) (xy 0.131945 -2.079994) (xy 0.092371 -2.028468) (xy 0.058013 -1.984909)
     (xy 0.031852 -1.953005) (xy 0.016866 -1.936447) (xy 0.014799 -1.934956) (xy 0.000946 -1.940264) (xy -0.029528 -1.956003) (xy -0.071515 -1.979452) (xy -0.101600 -1.996972) (xy -0.292813 -2.098363)
     (xy -0.502293 -2.188125) (xy -0.724898 -2.264487) (xy -0.955486 -2.325679) (xy -1.181100 -2.368739) (xy -1.276522 -2.380334) (xy -1.389882 -2.389188) (xy -1.513848 -2.395105) (xy -1.641086 -2.397893)
     (xy -1.764262 -2.397357) (xy -1.876044 -2.393303) (xy -1.938346 -2.388762) (xy -2.180135 -2.356810) (xy -2.420095 -2.306333) (xy -2.651749 -2.238958) (xy -2.868616 -2.156312) (xy -2.874589 -2.153717)
     (xy -2.933272 -2.127021) (xy -2.998427 -2.095583) (xy -3.064832 -2.062125) (xy -3.127268 -2.029365) (xy -3.180511 -2.000024) (xy -3.219342 -1.976822) (xy -3.234484 -1.966237) (xy -3.246294 -1.968068)
     (xy -3.267569 -1.986647) (xy -3.299618 -2.023377) (xy -3.343753 -2.079663) (xy -3.358309 -2.098925) (xy -3.397208 -2.151224) (xy -3.429956 -2.196230) (xy -3.453819 -2.230107) (xy -3.466063 -2.249021)
     (xy -3.467100 -2.251464) (xy -3.456261 -2.262275) (xy -3.426334 -2.281850) (xy -3.381204 -2.308118) (xy -3.324759 -2.339011) (xy -3.260884 -2.372458) (xy -3.193466 -2.406392) (xy -3.126391 -2.438741)
     (xy -3.063544 -2.467437) (xy -3.052262 -2.472367) (xy -2.772265 -2.580035) (xy -2.486675 -2.663224) (xy -2.196796 -2.721902) (xy -1.903928 -2.756038) (xy -1.609375 -2.765598) (xy -1.314436 -2.750550) )(layer F.SilkS) (width  0.010000)
  )
)
